<?xml version="1.0" standalone="no"?>
<!DOCTYPE svg PUBLIC "-//W3C//DTD SVG 1.1//EN" "http://www.w3.org/Graphics/SVG/1.1/DTD/svg11.dtd" >
<svg xmlns="http://www.w3.org/2000/svg" xmlns:xlink="http://www.w3.org/1999/xlink" version="1.1">
<metadata>
Created by FontForge 20190420 at Thu Nov 21 23:50:18 2019
 By convertio
(c) 1981 Linotype-Hell AG
</metadata>
<defs>
<font id="Frutiger-Bold" horiz-adv-x="1138" >
  <font-face 
    font-family="Frutiger Bold"
    font-weight="700"
    font-stretch="normal"
    units-per-em="2048"
    panose-1="2 11 7 2 2 5 4 2 2 4"
    ascent="1638"
    descent="-410"
    x-height="1055"
    cap-height="1422"
    bbox="-78 -512 2048 1891"
    underline-thickness="102"
    underline-position="-766"
    unicode-range="U+000D-FB02"
  />
<missing-glyph horiz-adv-x="748" 
d="M68 0v1365h544v-1365h-544zM136 68h408v1229h-408v-1229z" />
    <glyph glyph-name=".notdef" horiz-adv-x="748" 
d="M68 0v1365h544v-1365h-544zM136 68h408v1229h-408v-1229z" />
    <glyph glyph-name="glyph1" horiz-adv-x="0" 
 />
    <glyph glyph-name="uni000D" unicode="&#xd;" horiz-adv-x="0" 
 />
    <glyph glyph-name="space" unicode=" " horiz-adv-x="569" 
 />
    <glyph glyph-name="exclam" unicode="!" horiz-adv-x="796" 
d="M239 1422h322l-49 -1010h-230zM256 0v273h282v-273h-282z" />
    <glyph glyph-name="quotedbl" unicode="&#x22;" horiz-adv-x="985" 
d="M207 1413v51h215v-51l-37 -545h-141zM563 1413v51h215v-51l-37 -545h-141z" />
    <glyph glyph-name="numbersign" unicode="#" horiz-adv-x="1139" 
d="M-66 410l56 172h213l105 303h-214l56 172h214l140 407h199l-141 -407h227l141 407h201l-140 -407h213l-55 -172h-214l-105 -303h214l-55 -172h-214l-141 -410h-199l141 410h-230l-141 -410h-198l141 410h-214zM402 582h230l104 303h-229z" />
    <glyph glyph-name="dollar" unicode="$" 
d="M81 1032q0 184 135.5 283t303.5 107v183h111v-176q26 1 30 1q67 0 154.5 -14t152.5 -34l-26 -239q-59 29 -141.5 48t-138.5 19q-12 0 -31 -1v-360q235 -58 333.5 -169t98.5 -270q0 -170 -117 -287t-324 -132v-181h-114v173q-34 -1 -48 -1q-176 0 -355 63l26 258
q68 -37 173 -64.5t177 -27.5q13 0 27 2v394q-248 75 -337.5 176.5t-89.5 248.5zM356 1048q0 -51 32 -87q44 -49 132 -74v322q-79 -13 -121.5 -57.5t-42.5 -103.5zM622 216q82 22 122.5 69.5t40.5 109.5q0 58 -38.5 105t-124.5 76v-360z" />
    <glyph glyph-name="percent" unicode="%" horiz-adv-x="2048" 
d="M218 1071q0 187 83.5 295t248.5 108q159 0 252 -94.5t93 -267.5q0 -105 -34.5 -196.5t-109.5 -143t-189 -51.5q-112 0 -191 46t-116 128.5t-37 175.5zM438 1085q0 -114 33 -157.5t86 -43.5q51 0 83 44.5t32 178.5q0 114 -39 166q-26 35 -78 35q-51 0 -79 -38
q-38 -53 -38 -185zM534 -43l799 1539h168l-798 -1539h-169zM1150 322q0 187 83.5 295t248.5 108q159 0 251.5 -94.5t92.5 -268.5q0 -105 -34 -196t-109.5 -142.5t-189.5 -51.5q-111 0 -190 45.5t-116 128t-37 176.5zM1370 337q0 -115 33 -158.5t85 -43.5q51 0 83 44.5
t32 178.5q0 113 -38 166q-26 35 -78 35t-79 -38q-38 -53 -38 -184z" />
    <glyph glyph-name="ampersand" unicode="&#x26;" horiz-adv-x="1479" 
d="M123 406q0 96 42.5 177t121.5 137q54 38 137 65q-81 59 -136.5 154t-55.5 179q0 87 50 164.5t149.5 123t232.5 45.5q123 0 217.5 -39t143.5 -115.5t49 -173.5q0 -108 -61 -194t-219 -178l263 -289q35 40 61.5 128.5t26.5 157.5v22h251q-7 -148 -59 -281
q-38 -96 -124 -205l256 -284h-350l-98 123q-61 -65 -165 -107t-228 -42q-149 0 -266.5 56.5t-178 159.5t-60.5 216zM405 406q0 -51 32 -108.5t85.5 -87.5t130.5 -30q66 0 127.5 24.5t108.5 68.5l-318 355q-91 -47 -128.5 -105t-37.5 -117zM500 1115q0 -45 29.5 -96
t105.5 -118q91 47 141.5 106t50.5 109q0 56 -43.5 96t-114.5 40q-76 0 -122.5 -41t-46.5 -96z" />
    <glyph glyph-name="quotesingle" unicode="'" horiz-adv-x="569" 
d="M177 1413v51h215v-51l-40 -545h-135z" />
    <glyph glyph-name="parenleft" unicode="(" horiz-adv-x="683" 
d="M83 632q0 223 62.5 412.5t259.5 505.5h261q-159 -265 -228.5 -484.5t-69.5 -431.5q0 -230 73.5 -453.5t227.5 -469.5h-261q-94 130 -154 249q-89 174 -130 333.5t-41 338.5z" />
    <glyph glyph-name="parenright" unicode=")" horiz-adv-x="683" 
d="M14 -289q140 217 220.5 453t80.5 463q0 229 -73 451.5t-228 471.5h261q177 -247 262 -511q60 -183 60 -404q0 -164 -32.5 -306t-103 -292.5t-186.5 -325.5h-261z" />
    <glyph glyph-name="asterisk" unicode="*" 
d="M145 1143l69 220l272 -123l-28 296h225l-31 -294l273 114l64 -216l-285 -61l197 -219l-187 -135l-147 254l-154 -254l-187 135l201 219z" />
    <glyph glyph-name="plus" unicode="+" horiz-adv-x="1229" 
d="M84 426v209h426v426h209v-426h426v-209h-426v-426h-209v426h-426z" />
    <glyph glyph-name="comma" unicode="," horiz-adv-x="569" 
d="M78 -228l130 512h297l-185 -512h-242z" />
    <glyph glyph-name="hyphen" unicode="-" horiz-adv-x="683" 
d="M76 436v228h538v-228h-538z" />
    <glyph glyph-name="period" unicode="." horiz-adv-x="569" 
d="M140 0v284h289v-284h-289z" />
    <glyph glyph-name="slash" unicode="/" horiz-adv-x="796" 
d="M24 0l500 1422h244l-497 -1422h-247z" />
    <glyph glyph-name="zero" unicode="0" 
d="M73 709q0 167 24 301.5t87.5 230.5t159 151.5t226.5 55.5q133 0 231.5 -57t158.5 -155.5t84.5 -237t24.5 -281.5q0 -190 -34 -346q-13 -64 -42 -122q-37 -78 -95 -138.5t-138.5 -96t-189.5 -35.5q-135 0 -232 55.5t-155.5 152t-84 234t-25.5 288.5zM365 711
q0 -267 52.5 -392t149.5 -125q52 0 98.5 38t79 150t32.5 327q0 186 -24.5 313t-72 169.5t-107.5 42.5q-66 0 -114.5 -50.5t-71 -187.5t-22.5 -285z" />
    <glyph glyph-name="one" unicode="1" 
d="M130 1093l420 329h251v-1422h-289v1105l-237 -197z" />
    <glyph glyph-name="two" unicode="2" 
d="M83 0v239l183 166q69 63 191 202t164.5 206t59.5 119q11 38 11 80q0 89 -58.5 144t-164.5 55q-74 0 -167.5 -33t-161.5 -85l-24 251q89 47 203.5 74.5t226.5 27.5q153 0 251 -52.5t148.5 -145t50.5 -195.5q0 -83 -24.5 -163t-102.5 -198.5t-213 -265.5q-77 -85 -201 -196
h579v-230h-951z" />
    <glyph glyph-name="three" unicode="3" 
d="M92 31l17 244q168 -69 324 -69q141 0 213 61t72 152q0 90 -65 137q-88 65 -298 65q-37 0 -83 -5v235q42 -5 76 -5q152 0 228.5 29.5t107.5 78t31 95.5q0 44 -25 82.5t-83.5 61.5t-146.5 23q-79 0 -167 -21.5t-139 -51.5l-17 232q185 69 380 69q161 0 277 -51t165 -126.5
t49 -185.5q0 -157 -82.5 -237.5t-184.5 -99.5q50 0 113 -38q83 -49 123 -128t40 -181q0 -180 -123 -282q-158 -132 -438 -132q-79 0 -156.5 10t-207.5 38z" />
    <glyph glyph-name="four" unicode="4" 
d="M33 289v240l533 893h358v-915h180v-218h-180v-289h-284v289h-607zM291 507h358v628z" />
    <glyph glyph-name="five" unicode="5" 
d="M147 26l7 258q90 -38 157.5 -54.5t133.5 -16.5q145 0 221 68.5t76 173.5q0 102 -82 172t-242 70q-125 0 -250 -40l15 756h820v-218h-550l-7 -287q43 9 102 9q172 0 283.5 -61.5t162.5 -168.5t51 -227q0 -134 -63 -246.5t-188.5 -171.5t-303.5 -59q-78 0 -186.5 15
t-156.5 28z" />
    <glyph glyph-name="six" unicode="6" 
d="M88 640q0 202 50 375q37 129 109 225.5t165 145.5q120 64 278 64q151 0 301 -54l-35 -232q-59 28 -124 43.5t-118 15.5q-98 0 -178 -49t-120.5 -143.5t-45.5 -243.5q35 60 107 101t167 41q120 0 215.5 -54t149 -170t53.5 -260q0 -139 -56 -249.5t-166 -166t-255 -55.5
q-156 0 -261 66.5t-170.5 215.5t-65.5 384zM387 460q0 -62 24 -130.5t71 -104.5t102 -36q76 0 134 68.5t58 185.5q0 78 -27.5 142.5t-73.5 94t-99 29.5q-89 0 -139 -73.5t-50 -175.5z" />
    <glyph glyph-name="seven" unicode="7" 
d="M100 1190v223h924v-225l-507 -1188h-313l531 1190h-635z" />
    <glyph glyph-name="eight" unicode="8" 
d="M71 384q0 92 32 166.5t85 117.5t146 76q-104 28 -170.5 118.5t-66.5 213.5q0 158 110 254q134 116 361 116q206 0 334.5 -92t128.5 -251q0 -117 -70 -211.5t-169 -123.5q133 -39 204 -132.5t71 -235.5q0 -192 -128 -309t-367 -117t-370 117.5t-131 292.5zM363 399
q0 -55 26.5 -106.5t75.5 -78.5t112 -27q88 0 143 54t55 137q0 77 -44 133t-113 85.5t-77 29.5q-5 0 -43 -22q-61 -34 -98 -86.5t-37 -118.5zM375 1071q0 -48 24.5 -88.5t75.5 -72.5q25 -16 120 -57q10 0 49 26q50 34 80 85t30 106q0 73 -49 121t-134 48q-88 0 -142 -49.5
t-54 -118.5z" />
    <glyph glyph-name="nine" unicode="9" 
d="M78 974q0 140 56 250.5t166.5 166t254.5 55.5q155 0 260 -65.5t171.5 -215t66.5 -384.5q0 -190 -43 -350q-28 -105 -77 -191t-108 -139t-145 -86q-118 -45 -248 -45q-145 0 -283 54l36 232q126 -59 242 -59q97 0 177.5 48.5t120.5 143.5t45 244q-34 -60 -106 -101.5
t-167 -41.5q-121 0 -216 54.5t-149 170.5t-54 259zM365 977q0 -78 27 -143t73 -94t99 -29q90 0 140 74t50 175q0 63 -24.5 131t-71.5 103.5t-102 35.5q-75 0 -133 -68t-58 -185z" />
    <glyph glyph-name="colon" unicode=":" horiz-adv-x="569" 
d="M140 0v284h289v-284h-289zM140 773v284h289v-284h-289z" />
    <glyph glyph-name="semicolon" unicode=";" horiz-adv-x="569" 
d="M40 -228l130 512h297l-185 -512h-242zM144 773v284h289v-284h-289z" />
    <glyph glyph-name="less" unicode="&#x3c;" horiz-adv-x="1229" 
d="M29 428v204l1171 454v-222l-905 -334l905 -334v-222z" />
    <glyph glyph-name="equal" unicode="=" horiz-adv-x="1229" 
d="M84 203v209h1061v-209h-1061zM84 649v209h1061v-209h-1061z" />
    <glyph glyph-name="greater" unicode="&#x3e;" horiz-adv-x="1229" 
d="M29 -26v222l906 334l-906 334v222l1171 -454v-204z" />
    <glyph glyph-name="question" unicode="?" horiz-adv-x="1024" 
d="M102 1380q204 68 398 68q172 0 272.5 -49t151.5 -135t51 -175q0 -76 -30.5 -143.5t-107.5 -156.5l-145 -166q-31 -36 -49 -89.5t-18 -103.5q0 -8 1 -22h-249q-1 17 -1 26q0 45 9.5 100.5t29 102t45.5 76.5l145 171q68 82 68 164q0 75 -59 126.5t-166 51.5
q-68 0 -160 -23.5t-162 -62.5zM358 0v273h284v-273h-284z" />
    <glyph glyph-name="at" unicode="@" horiz-adv-x="1638" 
d="M45 712q0 210 107 397.5t307 294t430 106.5q200 0 365 -80t252 -224.5t87 -317.5q0 -106 -31 -200t-80.5 -161.5t-103 -108t-108.5 -59.5t-104 -19q-52 0 -92.5 20.5t-60.5 58t-20 73.5q0 18 7 52q-31 -61 -60 -94q-44 -50 -102.5 -80t-131.5 -30q-122 0 -202 85.5
t-80 234.5q0 131 62 252.5t156.5 185t197.5 63.5q69 0 123.5 -27t84.5 -81q20 -34 24 -87l48 162h155l-118 -396q-28 -94 -37 -135q-6 -30 -6 -56q0 -43 24 -66.5t67 -23.5q57 0 126 52t116.5 161t47.5 230q0 147 -74.5 267.5t-216 185t-314.5 64.5q-209 0 -384 -92.5
t-269 -260t-94 -350.5q0 -153 59 -273.5t145.5 -198.5t185.5 -120q147 -61 327 -61q152 0 293 46q141 47 287 153l55 -74q-164 -119 -314 -171q-151 -52 -325 -52q-238 0 -420.5 98t-286.5 273t-104 384zM595 650q0 -99 43.5 -149t111.5 -50q69 0 129.5 59t108.5 201
q35 107 35 179q0 76 -41 118.5t-105 42.5q-119 0 -200.5 -135.5t-81.5 -265.5z" />
    <glyph glyph-name="A" unicode="A" horiz-adv-x="1479" 
d="M19 0l559 1422h323l562 -1422h-318l-119 325h-587l-121 -325h-299zM526 555h413l-206 583z" />
    <glyph glyph-name="B" unicode="B" horiz-adv-x="1252" 
d="M149 0v1422h363q171 0 229 -6q95 -11 155.5 -38t107 -75.5t70 -110.5t23.5 -132q0 -122 -71.5 -206.5t-205.5 -111.5q143 -11 234 -107.5t91 -236.5q0 -97 -38.5 -173.5t-110.5 -131.5q-47 -36 -118 -58q-113 -35 -234 -35h-495zM429 220h140q152 0 219.5 58t67.5 151
q0 109 -69.5 157.5t-220.5 48.5h-137v-415zM429 846h137q134 0 189 50t55 130q0 61 -31 102.5t-74 55.5t-125 15l-151 3v-356z" />
    <glyph glyph-name="C" unicode="C" horiz-adv-x="1252" 
d="M104 705q0 328 202.5 529t537.5 201q191 0 362 -60l-23 -244q-66 32 -157.5 50.5t-166.5 18.5q-127 0 -231 -60.5t-158.5 -173t-54.5 -248.5q0 -221 133 -356t348 -135q157 0 301 60l12 -254q-55 -17 -153 -32t-186 -15q-197 0 -359 66q-195 80 -301 247t-106 406z" />
    <glyph glyph-name="D" unicode="D" horiz-adv-x="1479" 
d="M168 0v1422h325q223 0 354 -22.5t228 -76.5t170 -145t105 -199.5t32 -249.5q0 -147 -34 -265.5t-103 -209.5t-157 -144t-244 -86q-110 -24 -290 -24h-386zM455 223q38 -4 75 -4q117 0 216 25q73 18 126 51t102 92t78 144t29 184q0 95 -26 175.5t-77 145t-114 100.5
q-62 35 -152 52q-85 16 -239 16h-18v-981z" />
    <glyph glyph-name="E" unicode="E" 
d="M168 0v1415h841v-237h-552v-337h505v-232h-505v-372h557v-237h-846z" />
    <glyph glyph-name="F" unicode="F" horiz-adv-x="1024" 
d="M154 0v1415h792v-237h-503v-341h479v-233h-479v-604h-289z" />
    <glyph glyph-name="G" unicode="G" horiz-adv-x="1479" 
d="M102 714q0 211 90 372.5t279 257t437 95.5q213 0 391 -59l-19 -256q-61 32 -174 58.5t-200 26.5q-141 0 -258 -60t-177.5 -174.5t-60.5 -261.5q0 -149 62 -263t178.5 -169.5t240.5 -55.5q39 0 92.5 7.5t80.5 16.5v346h-301v228h574v-759q-112 -37 -243.5 -56.5
t-240.5 -19.5q-156 0 -294 43.5t-242 139.5t-159.5 236t-55.5 307z" />
    <glyph glyph-name="H" unicode="H" horiz-adv-x="1479" 
d="M171 0v1422h289v-569h569v569h289v-1422h-289v612h-569v-612h-289z" />
    <glyph glyph-name="I" unicode="I" horiz-adv-x="569" 
d="M140 0v1422h289v-1422h-289z" />
    <glyph glyph-name="J" unicode="J" horiz-adv-x="796" 
d="M24 19l7 246q75 -21 137 -21q96 0 144 65q34 46 34 170v943h290v-972q0 -171 -43 -263.5t-141 -145.5t-219 -53q-101 0 -209 31z" />
    <glyph glyph-name="K" unicode="K" horiz-adv-x="1365" 
d="M168 0v1422h289v-607l515 607h353l-588 -659l611 -763h-374l-517 664v-664h-289z" />
    <glyph glyph-name="L" unicode="L" horiz-adv-x="1024" 
d="M149 0v1422h289v-1178h550v-244h-839z" />
    <glyph glyph-name="M" unicode="M" horiz-adv-x="1934" 
d="M161 0v1422h460l341 -1081l351 1081h450v-1422h-272v1185l-403 -1185h-268l-394 1185v-1185h-265z" />
    <glyph glyph-name="N" unicode="N" horiz-adv-x="1479" 
d="M154 0v1422h346l562 -1090v1090h258v-1422h-348l-562 1090v-1090h-256z" />
    <glyph glyph-name="O" unicode="O" horiz-adv-x="1593" 
d="M102 718q0 160 47 298t135.5 233t199.5 143q141 61 317 61q204 0 358 -83t242 -260.5t88 -394.5t-85.5 -391t-247.5 -263.5t-364 -89.5q-198 0 -360.5 89.5t-246 259.5t-83.5 398zM410 708q0 -164 52 -281t140.5 -175t194.5 -58q156 0 257 121q127 149 127 397
q0 169 -57.5 292.5t-143 176t-185.5 52.5q-159 0 -260 -121q-125 -149 -125 -404z" />
    <glyph glyph-name="P" unicode="P" 
d="M142 0v1422h313q183 0 241 -7q103 -14 172 -47t122.5 -90.5t81.5 -131.5t28 -160q0 -96 -34 -175t-89.5 -136.5t-122.5 -87t-158 -43.5q-44 -6 -110 -6h-34l-121 2v-540h-289zM431 761q45 -1 60 -1q105 0 160 17q34 12 69.5 37.5t58 67t22.5 105.5q0 98 -72.5 159.5
t-233.5 61.5q-27 0 -64 -4v-443z" />
    <glyph glyph-name="Q" unicode="Q" horiz-adv-x="1593" 
d="M104 703q0 137 36 272.5t122 243.5t230.5 167.5t302.5 59.5q161 0 297.5 -57t219.5 -149t130 -231t47 -295q0 -146 -41 -286q-27 -95 -71 -166t-123 -141q-59 -52 -133 -85l336 -309h-350l-242 245q-57 -3 -87 -3q-301 0 -487.5 195.5t-186.5 538.5zM410 709
q0 -253 126 -403q98 -116 262 -116q182 0 283.5 148t101.5 378q0 135 -44 251q-24 63 -68 122t-112 98t-159 39q-103 0 -193.5 -57.5t-143.5 -177.5t-53 -282z" />
    <glyph glyph-name="R" unicode="R" horiz-adv-x="1252" 
d="M156 0v1422h405q175 0 232 -6q85 -10 141 -37t103 -77t71.5 -114.5t24.5 -137.5q0 -83 -28.5 -145.5t-68 -102t-83.5 -61t-110 -32.5q38 -2 77 -36.5t68 -101.5l33 -76l204 -495h-320l-154 401q-27 70 -40 94q-22 42 -43.5 62t-47.5 28q-40 11 -114 11q-26 0 -61 -3v-593
h-289zM445 813h126q137 0 200.5 58t63.5 149q0 78 -56.5 128.5t-167.5 50.5h-166v-386z" />
    <glyph glyph-name="S" unicode="S" 
d="M119 1030q0 179 129 293t378 114q161 0 334 -53l-26 -237q-57 29 -140.5 48t-153.5 19q-110 0 -168.5 -49t-58.5 -113q0 -49 32.5 -89.5t126.5 -78.5l215 -88q119 -48 186.5 -147t67.5 -226q0 -115 -46.5 -200.5t-119.5 -137t-171 -74.5t-206 -23q-171 0 -355 57l26 261
q66 -39 152 -63.5t166 -24.5q125 0 190.5 55.5t65.5 129.5q0 56 -35.5 97.5t-114.5 75.5l-197 85q-92 40 -142 81q-66 53 -100.5 124t-34.5 164z" />
    <glyph glyph-name="T" unicode="T" 
d="M24 1178v242h1105v-242h-413v-1178h-289v1178h-403z" />
    <glyph glyph-name="U" unicode="U" horiz-adv-x="1479" 
d="M159 609v813h289v-837q0 -111 16 -173t53 -107.5t86 -72.5t136 -27q143 0 221 87t78 293v837h278v-837q0 -158 -23.5 -253t-65.5 -152.5t-109.5 -104t-146.5 -68.5q-112 -31 -240 -31q-127 0 -227.5 28.5t-167 78.5t-103.5 110t-59 163q-15 70 -15 253z" />
    <glyph glyph-name="V" unicode="V" horiz-adv-x="1365" 
d="M17 1422h308l370 -1114l365 1114h284l-481 -1422h-353z" />
    <glyph glyph-name="W" unicode="W" horiz-adv-x="2048" 
d="M17 1422h301l268 -1100l246 1100h389l254 -1128l270 1128h280l-375 -1422h-367l-261 1138l-256 -1138h-370z" />
    <glyph glyph-name="X" unicode="X" horiz-adv-x="1365" 
d="M17 0l472 744l-427 678h332l299 -502l305 502h306l-429 -678l469 -744h-339l-329 557l-334 -557h-325z" />
    <glyph glyph-name="Y" unicode="Y" horiz-adv-x="1365" 
d="M17 1422h337l336 -592l344 592h303l-512 -853v-569h-289v569z" />
    <glyph glyph-name="Z" unicode="Z" 
d="M73 0v247l668 938h-642v237h951v-246l-669 -939h683v-237h-991z" />
    <glyph glyph-name="bracketleft" unicode="[" horiz-adv-x="683" 
d="M171 -287v1835h453v-190h-202v-1455h202v-190h-453z" />
    <glyph glyph-name="backslash" unicode="\" horiz-adv-x="797" 
d="M35 1422h244l484 -1422h-247z" />
    <glyph glyph-name="bracketright" unicode="]" horiz-adv-x="683" 
d="M76 -97h202v1455h-202v190h453v-1835h-453v190z" />
    <glyph glyph-name="asciicircum" unicode="^" horiz-adv-x="1229" 
d="M164 594l358 870h185l359 -870h-201l-250 621l-251 -621h-200z" />
    <glyph glyph-name="underscore" unicode="_" horiz-adv-x="1024" 
d="M0 -154h1024v-102h-1024v102z" />
    <glyph glyph-name="grave" unicode="`" horiz-adv-x="569" 
d="M59 1498h280l170 -296h-170z" />
    <glyph glyph-name="a" unicode="a" 
d="M71 315q0 179 163 270q125 69 377 69q63 0 143 -7q1 19 1 29q0 99 -58 153.5t-178 54.5q-87 0 -176 -34t-151 -84l-7 237q53 27 160 50t211 23q133 0 225.5 -37t150.5 -112q40 -53 54 -138.5t14 -250.5v-156l3 -154l4 -162l5 -66h-242l-7 156q-35 -74 -127.5 -124.5
t-206.5 -50.5q-99 0 -183 41t-129.5 117.5t-45.5 175.5zM344 306q0 -60 43 -99t119 -39q67 0 130.5 39.5t91.5 102.5t28 171q-51 4 -69 4q-100 0 -183.5 -18t-121.5 -61.5t-38 -99.5z" />
    <glyph glyph-name="b" unicode="b" horiz-adv-x="1252" 
d="M140 0v1536h270v-633q47 61 77 85q50 40 112.5 63t141.5 23q186 0 306 -135.5t120 -394.5q0 -172 -52 -300t-153.5 -193t-228.5 -65q-105 0 -191 44t-141 124v-154h-261zM413 524q0 -164 70 -245.5t167 -81.5q96 0 164.5 81.5t68.5 247.5q0 164 -65.5 243.5t-162.5 79.5
q-99 0 -170.5 -83t-71.5 -242z" />
    <glyph glyph-name="c" unicode="c" horiz-adv-x="910" 
d="M69 528q0 160 66 282t194.5 188t275.5 66q53 0 120.5 -9.5t113.5 -23.5l-23 -220q-68 36 -166 36q-127 0 -212 -88t-85 -226q0 -90 36.5 -164t105 -114t153.5 -40q48 0 103 14t95 34l12 -230q-112 -38 -244 -38q-124 0 -224 36.5t-166.5 101t-102.5 141.5
q-52 113 -52 254z" />
    <glyph glyph-name="d" unicode="d" horiz-adv-x="1252" 
d="M90 540q0 247 113.5 390.5t310.5 143.5q108 0 186 -41t146 -130v633h270v-1536h-260v154q-53 -78 -140 -123t-192 -45q-87 0 -155.5 27.5t-112 65.5t-81 97.5t-61.5 156t-24 207.5zM373 526q0 -170 70.5 -249.5t162.5 -79.5q97 0 167 81.5t70 242.5q0 143 -64 235.5
t-179 92.5q-95 0 -161 -79.5t-66 -243.5z" />
    <glyph glyph-name="e" unicode="e" 
d="M81 531q0 168 63.5 297t184.5 194.5t267 65.5q156 0 267 -77.5t155.5 -210.5t44.5 -301q0 -19 -3 -56h-714q3 -71 43.5 -133.5t104.5 -93.5t157 -31q84 0 166 23.5t174 75.5l3 -225q-36 -27 -143.5 -55t-220.5 -28q-168 0 -292.5 62.5t-190.5 192.5t-66 300zM344 633h462
q-6 131 -67 196t-162 65q-94 0 -147 -57q-75 -78 -86 -204z" />
    <glyph glyph-name="f" unicode="f" horiz-adv-x="796" 
d="M38 844v206h204q3 202 37 297t113.5 147t217.5 52q93 0 168 -22l-22 -225q-48 24 -104 24q-80 0 -105 -52t-30 -221h239v-206h-239v-844h-275v844h-204z" />
    <glyph glyph-name="g" unicode="g" horiz-adv-x="1252" 
d="M83 542q0 254 125.5 393t308.5 139q83 0 155.5 -29t119.5 -74q33 -32 57 -82v166h263v-927q0 -150 -25 -238.5t-66 -144.5t-101 -97.5t-128 -63.5q-105 -32 -230 -32q-195 0 -370 73l24 240q68 -43 159.5 -68t168.5 -25q97 0 174 45.5t107.5 127t32.5 266.5
q-60 -108 -154 -160.5t-196 -52.5q-112 0 -212.5 61t-156.5 185.5t-56 297.5zM367 564q0 -172 67 -254t166 -82q100 0 172 81.5t72 225.5q0 150 -72 234t-170 84q-64 0 -120 -36.5t-85.5 -105.5t-29.5 -147z" />
    <glyph glyph-name="h" unicode="h" horiz-adv-x="1252" 
d="M145 0v1536h275v-633q126 168 332 168q99 0 176.5 -37.5t116.5 -94t59 -160.5q10 -57 10 -175v-604h-274v607q0 122 -51.5 182t-126.5 60q-67 0 -125.5 -38t-82.5 -106q-34 -91 -34 -174v-531h-275z" />
    <glyph glyph-name="i" unicode="i" horiz-adv-x="569" 
d="M147 0v1055h275v-1055h-275zM147 1247v258h275v-258h-275z" />
    <glyph glyph-name="j" unicode="j" horiz-adv-x="569" 
d="M-28 -424l10 196q12 -2 27 -2q82 0 117 54q26 40 26 150v1081h275v-1119q0 -94 -22 -165.5t-65.5 -118t-106.5 -70t-145 -23.5q-69 0 -116 17zM152 1247v258h275v-258h-275z" />
    <glyph glyph-name="k" unicode="k" 
d="M152 0v1536h275v-903l332 422h322l-393 -472l443 -583h-348l-356 512v-512h-275z" />
    <glyph glyph-name="l" unicode="l" horiz-adv-x="569" 
d="M149 0v1536h275v-1536h-275z" />
    <glyph glyph-name="m" unicode="m" horiz-adv-x="1820" 
d="M128 1055h261l7 -161q52 84 139 130.5t192 46.5q117 0 196 -57q60 -44 99 -130q24 51 59 84q50 48 125 77t154 29q94 0 164 -40t107 -103q27 -46 43 -140q11 -62 11 -182v-609h-275v581q0 113 -16 161.5t-55.5 75t-86.5 26.5q-54 0 -104 -36.5t-74 -110t-24 -142.5v-555
h-275v633q0 107 -45 159t-113 52q-79 0 -142 -76.5t-63 -238.5v-529h-275v794l-4 175q-1 46 -5 86z" />
    <glyph glyph-name="n" unicode="n" horiz-adv-x="1252" 
d="M135 1055h261l7 -161q113 178 341 178q86 0 154.5 -25t112.5 -68.5t66 -95.5t32 -147q4 -45 5 -238v-498h-273v529q0 172 -30 232q-46 90 -153 90q-67 0 -126 -38t-86 -108t-27 -205v-500h-275v847q0 109 -9 208z" />
    <glyph glyph-name="o" unicode="o" horiz-adv-x="1252" 
d="M76 525q0 249 154 405t397 156q242 0 394.5 -156t152.5 -416q0 -95 -32 -193.5t-97.5 -173.5t-171 -125.5t-247.5 -50.5q-242 0 -396 154.5t-154 399.5zM365 531q0 -173 75 -262t183 -89q126 0 196 97t70 247q0 136 -67 246t-194 110q-57 0 -102 -22.5t-79 -65.5t-54 -97
q-28 -78 -28 -164z" />
    <glyph glyph-name="p" unicode="p" horiz-adv-x="1252" 
d="M133 1055h265l5 -164q54 86 139.5 134.5t195.5 48.5q181 0 294 -115q139 -143 139 -416q0 -164 -50 -292t-152 -196.5t-242 -68.5q-108 0 -187 43t-125 116v-579h-273v1181l-4 206l-3 73zM415 521q0 -157 70.5 -239.5t166.5 -82.5q93 0 164 85.5t71 248.5q0 160 -71 248
q-55 68 -148 68q-106 0 -179.5 -84.5t-73.5 -243.5z" />
    <glyph glyph-name="q" unicode="q" horiz-adv-x="1252" 
d="M71 539q0 264 121.5 399.5t310.5 135.5q219 0 336 -183l5 164l265 -3l-2 -26l-7 -279v-1181h-273v579q-44 -71 -123 -115t-189 -44q-129 0 -231 61.5t-157.5 191.5t-55.5 300zM355 533q0 -162 71 -248t165 -86q59 0 116 37t90 112.5t33 171.5q0 156 -74 242.5t-179 86.5
q-95 0 -158.5 -77.5t-63.5 -238.5z" />
    <glyph glyph-name="r" unicode="r" horiz-adv-x="796" 
d="M135 1055h251l5 -268q27 128 111 202.5t191 74.5q39 0 75 -7v-258q-31 17 -84 17q-74 0 -124.5 -29t-82.5 -77.5t-45 -109.5t-13 -166v-434h-275v735l-7 291z" />
    <glyph glyph-name="s" unicode="s" horiz-adv-x="910" 
d="M85 28l17 228q159 -66 266 -66q100 0 152 40q37 28 37 82q0 35 -17 57t-54 34l-119 38q-162 52 -222 126t-60 186q0 135 98 219q123 105 324 105q129 0 282 -41l-19 -209q-125 48 -226 48q-97 0 -143 -35.5t-46 -78.5q0 -33 27.5 -57t48.5 -26l10 -2l192 -67
q95 -33 148 -108t53 -182q0 -89 -33 -148.5t-83.5 -99.5t-100.5 -59q-80 -31 -207 -31q-160 0 -325 47z" />
    <glyph glyph-name="t" unicode="t" horiz-adv-x="796" 
d="M28 846v204h204v216l263 87v-303h246v-204h-246v-386q0 -139 24 -178q41 -66 136 -66q48 0 98 16l7 -218q-81 -26 -186 -26q-76 0 -132.5 17.5t-96.5 49t-64 71t-40 114.5q-12 55 -12 163v443h-201z" />
    <glyph glyph-name="u" unicode="u" horiz-adv-x="1252" 
d="M145 521v534h275v-519l2 -93q3 -109 36 -158q52 -76 149 -76q57 0 103 28.5t73.5 77.5t40.5 128q6 37 6 126v486h275v-645l7 -348l7 -62h-265l-7 161q-47 -79 -135.5 -127.5t-205.5 -48.5q-83 0 -149 23.5t-107.5 61.5t-63 83t-33.5 136q-8 61 -8 232z" />
    <glyph glyph-name="v" unicode="v" 
d="M24 1055h296l263 -771l256 771h275l-388 -1055h-311z" />
    <glyph glyph-name="w" unicode="w" horiz-adv-x="1820" 
d="M21 1055h289l237 -780l214 780h320l232 -780l220 780h263l-324 -1055h-323l-232 806l-228 -806h-312z" />
    <glyph glyph-name="x" unicode="x" 
d="M17 0l365 552l-327 503h325l206 -344l204 341h289l-315 -504l358 -548h-330l-235 393l-237 -393h-303z" />
    <glyph glyph-name="y" unicode="y" 
d="M24 1055h303l256 -775l256 775h280l-424 -1128l-50 -114q-34 -79 -80.5 -132.5t-122 -88.5t-160.5 -35q-33 0 -102 8q-48 6 -90 20l19 204q67 -20 133 -20t120 48t72 128z" />
    <glyph glyph-name="z" unicode="z" horiz-adv-x="1024" 
d="M73 0v213l536 628h-512v214h834v-223l-524 -619h545v-213h-879z" />
    <glyph glyph-name="braceleft" unicode="{" horiz-adv-x="682" 
d="M-17 470v139q109 14 165.5 56t73.5 95t17 152v112q0 192 37.5 278t136.5 141.5t287 65.5v-139q-65 -7 -109 -27t-73.5 -59t-40.5 -95t-11 -145v-75q0 -163 -25 -240q-25 -78 -91.5 -127.5t-180.5 -61.5q85 -10 139 -36.5t91 -75.5t52 -111.5t15 -206.5v-75
q0 -110 19.5 -175.5t71 -103.5t143.5 -47v-139q-187 10 -286.5 65.5t-137 141t-37.5 278.5v112q0 107 -20.5 160.5t-79 92t-156.5 50.5z" />
    <glyph glyph-name="bar" unicode="|" horiz-adv-x="455" 
d="M123 -512v2048h209v-2048h-209z" />
    <glyph glyph-name="braceright" unicode="}" horiz-adv-x="682" 
d="M-17 -291q58 6 97.5 22t66 42t41.5 61.5t23 94.5q6 37 6 106v75q0 165 25.5 242t91 125.5t180.5 62.5q-73 7 -116 25q-57 24 -100.5 69.5t-62 113t-18.5 221.5v75q0 114 -20.5 178t-72 101.5t-141.5 46.5v139q187 -10 286 -65t137 -140q38 -86 38 -280v-112
q0 -91 12 -136q13 -46 39.5 -77t76.5 -55.5t128 -34.5v-139q-98 -11 -157 -50t-79 -92t-20 -161v-112q0 -191 -37.5 -277t-136.5 -142t-287 -66v139z" />
    <glyph glyph-name="asciitilde" unicode="~" horiz-adv-x="1229" 
d="M14 313q24 144 66.5 231t109.5 130t139 43q92 0 242 -57l129 -49q116 -44 143 -52q28 -8 50 -8q57 0 103.5 42.5t78.5 154.5h140q-39 -218 -140 -327q-73 -80 -169 -80q-52 0 -117 16q-66 16 -197 67l-100 40q-74 29 -104 36q-31 8 -58 8q-56 0 -102 -43t-74 -152h-140z
" />
    <glyph glyph-name="uni00A0" unicode="&#xa0;" 
 />
    <glyph glyph-name="exclamdown" unicode="&#xa1;" horiz-adv-x="796" 
d="M237 -367l50 1009h230l42 -1009h-322zM261 782v273h282v-273h-282z" />
    <glyph glyph-name="cent" unicode="&#xa2;" 
d="M183 528q0 111 34.5 211.5t108.5 174t180.5 113t201.5 39.5q39 0 58 -4l79 246h118l-83 -260q36 -6 74 -17l-24 -220q-68 25 -109 33l-187 -602q48 -26 129 -26q46 0 104.5 14.5t93.5 32.5l12 -230q-117 -38 -253 -38q-80 0 -158 19l-87 -277h-119l100 315
q-73 38 -119 82q-66 63 -110 160.5t-44 233.5zM467 531q0 -65 21 -123.5t48 -89.5l162 523q-102 -23 -166.5 -105.5t-64.5 -204.5z" />
    <glyph glyph-name="sterling" unicode="&#xa3;" 
d="M111 0v216h178v452h-154v155h154q-2 42 -2 65q0 162 49 282.5t170 191t306 70.5q126 0 235 -33l-14 -230q-101 35 -193 35q-130 0 -198 -86.5t-68 -239.5q0 -18 2 -55h303v-155h-303v-452h457v-216h-922z" />
    <glyph glyph-name="currency" unicode="&#xa4;" horiz-adv-x="1139" 
d="M71 351l141 139q-46 65 -64.5 119t-18.5 124q0 69 18.5 124t64.5 125l-141 135l115 115l138 -138q66 44 120 62t124 18q71 0 125 -18.5t120 -64.5l139 141l115 -115l-141 -140q45 -61 61 -108q21 -61 21 -134q0 -72 -18 -126t-64 -119l141 -139l-115 -115l-138 138
q-66 -44 -120 -61.5t-125 -17.5t-125 18t-120 64l-139 -141zM301 735q0 -111 78.5 -189.5t189.5 -78.5t189 78.5t78 189.5q0 69 -36 133t-100 99t-130 35q-68 0 -132.5 -35t-100.5 -99t-36 -133z" />
    <glyph glyph-name="yen" unicode="&#xa5;" 
d="M-26 1416h311l211 -408q21 -41 29 -59l54 -120q42 98 84 179l213 408h288l-353 -665h210v-151h-290l-15 -28v-113h305v-150h-305v-309h-290v309h-304v150h304v104l-19 37h-285v151h205z" />
    <glyph glyph-name="brokenbar" unicode="&#xa6;" horiz-adv-x="455" 
d="M123 -256v512h209v-512h-209zM123 768v512h209v-512h-209z" />
    <glyph glyph-name="section" unicode="&#xa7;" 
d="M152 597q0 161 145 259q-61 39 -98.5 100.5t-37.5 137.5q0 95 51 178t154 131t236 48q54 0 144.5 -11t180.5 -32l-21 -223q-66 29 -150 44.5t-148 15.5q-101 0 -149.5 -39.5t-48.5 -92.5q0 -45 39 -88t146 -82l133 -47q96 -34 155.5 -77t92 -105t32.5 -135
q0 -82 -41.5 -152t-108.5 -105q131 -86 131 -237q0 -90 -52.5 -180.5t-156 -140t-245.5 -49.5q-70 0 -168.5 14.5t-200.5 45.5l19 234q63 -31 162 -54.5t173 -23.5q75 0 122.5 18t69 50.5t21.5 68.5q0 37 -24.5 70.5t-65.5 51.5l-218 90q-142 58 -207.5 133.5t-65.5 183.5z
M353 647q0 -45 35 -88t134 -83l201 -80q74 55 74 137q0 66 -46 107q-35 31 -158 81l-166 66q-33 -28 -53.5 -68.5t-20.5 -71.5z" />
    <glyph glyph-name="dieresis" unicode="&#xa8;" horiz-adv-x="569" 
d="M-40 1247v237h232v-237h-232zM377 1247v237h232v-237h-232z" />
    <glyph glyph-name="copyright" unicode="&#xa9;" horiz-adv-x="1639" 
d="M43 734q0 202 104.5 388.5t290.5 286.5t381 100t381.5 -100t290.5 -286.5t104 -388.5q0 -128 -39 -244q-39 -117 -107 -210q-68 -94 -163 -167q-95 -74 -217 -115t-250 -41q-169 0 -311 65t-237.5 162t-150.5 214q-77 159 -77 336zM141 734q0 -154 67 -293
q48 -102 131 -187t207.5 -142t272.5 -57q110 0 215 35t188 98q84 63 144 144q60 82 95 185q36 103 36 217q0 158 -72 303q-48 97 -128 178q-80 82 -207 139t-271 57q-171 0 -333.5 -87.5t-253.5 -250.5t-91 -339zM415 736q0 126 52.5 234t147 165t208.5 57q156 0 260 -92
t114 -226h-135q-16 90 -78.5 142.5t-151.5 52.5q-108 0 -182.5 -85.5t-74.5 -241.5q0 -104 36 -183t98.5 -117.5t135.5 -38.5q86 0 144.5 48.5t76.5 136.5h135q-13 -111 -91 -196q-103 -111 -270 -111q-179 0 -302 127.5t-123 327.5z" />
    <glyph glyph-name="ordfeminine" unicode="&#xaa;" horiz-adv-x="739" 
d="M46 988q0 104 91 154t260 50q41 0 93 -5v18q0 58 -37 91.5t-116 33.5q-57 0 -115 -21t-97 -51l-5 143q36 17 105 30.5t138 13.5q98 0 158 -27.5t87 -65.5t34 -82.5t8 -118.5q3 -299 8 -352h-157l-5 94q-23 -44 -83 -74.5t-134 -30.5q-108 0 -170.5 57t-62.5 143zM223 983
q0 -35 27.5 -59t78.5 -24q44 0 85.5 24.5t59 61.5t17.5 102q-31 2 -45 2q-130 0 -185 -37q-38 -26 -38 -70z" />
    <glyph glyph-name="guillemotleft" unicode="&#xab;" 
d="M97 529l242 419h256l-223 -419l223 -420h-256zM562 529l241 419h254l-220 -419l220 -420h-254z" />
    <glyph glyph-name="logicalnot" unicode="&#xac;" horiz-adv-x="1229" 
d="M84 649v209h1061v-655h-209v446h-852z" />
    <glyph glyph-name="uni00AD" unicode="&#xad;" horiz-adv-x="683" 
d="M76 436v228h538v-228h-538z" />
    <glyph glyph-name="registered" unicode="&#xae;" horiz-adv-x="1638" 
d="M66 733q0 203 104.5 389.5t290 286.5t375.5 100q196 0 382 -100t290 -286.5t104 -389.5q0 -127 -39 -243q-39 -117 -106 -210q-68 -93 -163 -166q-95 -74 -216.5 -115.5t-248.5 -41.5q-129 0 -246.5 41t-209.5 109q-93 69 -165 164q-72 96 -112 216.5t-40 245.5zM164 733
q0 -110 35 -215t98 -188q63 -84 144 -144t183 -95q103 -36 215 -36q152 0 291 67q101 48 185 131t141.5 207.5t57.5 272.5q0 176 -91 339.5t-253.5 251t-333.5 87.5q-165 0 -327 -87.5t-253.5 -250.5t-91.5 -340zM529 307v856h291q125 0 185 -16q82 -22 130.5 -80t48.5 -148
q0 -88 -52.5 -145.5t-153.5 -68.5q65 -9 112 -47t64 -88q18 -50 19 -141q2 -64 5 -84t10 -38h-148q-10 28 -12 85q-4 104 -12 140t-35 64t-66 39.5t-123 11.5h-116v-340h-147zM676 758h136q124 0 174.5 41.5t50.5 110.5q0 76 -55 109.5t-173 33.5h-133v-295z" />
    <glyph glyph-name="macron" unicode="&#xaf;" horiz-adv-x="569" 
d="M-12 1292v137h593v-137h-593z" />
    <glyph glyph-name="degree" unicode="&#xb0;" horiz-adv-x="819" 
d="M97 1197q0 82 42 157t117 115t153 40q79 0 154 -40t117 -115.5t42 -156.5t-41.5 -155.5t-116 -115.5t-155.5 -41t-155.5 41t-115.5 115.5t-41 155.5zM232 1198q0 -74 52 -126t125 -52q74 0 126 52.5t52 125.5t-52 124.5t-126 51.5t-125.5 -51.5t-51.5 -124.5z" />
    <glyph glyph-name="plusminus" unicode="&#xb1;" horiz-adv-x="1229" 
d="M84 0v197h1061v-197h-1061zM84 561v197h426v303h209v-303h426v-197h-426v-293h-209v293h-426z" />
    <glyph glyph-name="uni00B2" unicode="&#xb2;" horiz-adv-x="740" 
d="M54 577v144q151 123 248 225t127 162q21 40 21 77q0 52 -37.5 85.5t-108.5 33.5q-48 0 -111.5 -22t-101.5 -49l-15 151q127 61 279 61q142 0 217 -68t75 -168q0 -85 -52 -171q-89 -149 -299 -323h376v-138h-618z" />
    <glyph glyph-name="uni00B3" unicode="&#xb3;" horiz-adv-x="740" 
d="M60 597l11 147q109 -42 211 -42q93 0 139 37t46 91q0 53 -40 81q-57 40 -194 40q-27 0 -56 -3v141q28 -3 48 -3q101 0 150.5 18t69.5 47t20 57q0 42 -38 71t-128 29q-51 0 -108 -12.5t-91 -31.5l-11 140q120 41 247 41q164 0 254 -72q65 -52 65 -146q0 -82 -46.5 -135.5
t-126.5 -66.5q51 0 115 -51.5t64 -156.5q0 -106 -76 -167q-102 -82 -289 -82q-92 0 -236 29z" />
    <glyph glyph-name="acute" unicode="&#xb4;" horiz-adv-x="569" 
d="M59 1202l171 296h279l-289 -296h-161z" />
    <glyph glyph-name="mu" unicode="&#xb5;" horiz-adv-x="1252" 
d="M143 -418v1455h274v-489q0 -163 13 -220q14 -57 60 -91.5t116 -34.5q80 0 131.5 44.5t70.5 111.5q20 67 20 212v467h274v-629q0 -260 12 -408h-259l-7 153q-55 -99 -132 -148q-51 -32 -129 -32q-107 0 -176 65q6 -179 6 -184v-272h-274z" />
    <glyph glyph-name="paragraph" unicode="&#xb6;" horiz-adv-x="1271" 
d="M53 970q0 220 143 357t394 137h583v-147h-104v-1682h-185v1682h-223v-1682h-184v880q-116 2 -216.5 57.5t-154 161.5t-53.5 236z" />
    <glyph glyph-name="cedilla" unicode="&#xb8;" horiz-adv-x="569" 
d="M52 -412l40 87q29 -16 71 -27t72 -11q57 0 85 24.5t28 59.5q0 27 -24.5 47.5t-69.5 20.5t-86 -19l-31 55l121 192h104l-101 -154q44 11 85 11q81 0 124.5 -40t43.5 -104q0 -77 -64.5 -131t-190.5 -54q-108 0 -207 43z" />
    <glyph glyph-name="uni00B9" unicode="&#xb9;" horiz-adv-x="740" 
d="M85 1233l273 197h163v-853h-188v663l-154 -118z" />
    <glyph glyph-name="ordmasculine" unicode="&#xba;" horiz-adv-x="812" 
d="M49 1109q0 146 98 241t260 95q161 0 258 -95t97 -248q0 -86 -41.5 -163t-125 -120t-189.5 -43q-161 0 -259 94.5t-98 238.5zM237 1112q0 -102 48 -156.5t120 -54.5q76 0 124.5 54.5t48.5 151.5q0 99 -49.5 156.5t-120.5 57.5t-121 -56t-50 -153z" />
    <glyph glyph-name="guillemotright" unicode="&#xbb;" 
d="M78 109l220 420l-220 419h254l241 -419l-241 -420h-254zM540 109l223 420l-223 419h256l242 -419l-242 -420h-256z" />
    <glyph glyph-name="onequarter" unicode="&#xbc;" horiz-adv-x="1708" 
d="M-19 1233l273 197h163v-853h-188v663l-154 -118zM276 -43l856 1539h168l-855 -1539h-169zM885 174v143l347 536h232v-549h117v-130h-117v-174h-185v174h-394zM1053 304h232v377z" />
    <glyph glyph-name="onehalf" unicode="&#xbd;" horiz-adv-x="1708" 
d="M2 1233l273 197h163v-853h-188v663l-154 -118zM238 -43l856 1539h168l-856 -1539h-168zM938 0v144q152 123 248 225q97 102 128 161q20 40 20 77q0 53 -37.5 86.5t-107.5 33.5q-48 0 -111.5 -22t-102.5 -49l-15 150q127 62 279 62q142 0 217.5 -68t75.5 -168
q0 -85 -52 -171q-90 -149 -300 -323h376v-138h-618z" />
    <glyph glyph-name="threequarters" unicode="&#xbe;" horiz-adv-x="1708" 
d="M-4 597l11 147q109 -42 211 -42q93 0 139 37t46 91q0 53 -40 81q-57 40 -194 40q-27 0 -56 -3v141q28 -3 48 -3q101 0 150.5 18t69.5 47t20 57q0 42 -38 71t-128 29q-51 0 -108 -12.5t-91 -31.5l-11 140q120 41 247 41q164 0 254 -72q65 -52 65 -146q0 -82 -46.5 -135.5
t-126.5 -66.5q51 0 115 -51.5t64 -156.5q0 -106 -76 -167q-102 -82 -289 -82q-92 0 -236 29zM322 -43l856 1539h168l-856 -1539h-168zM924 174v143l347 536h233v-549h117v-130h-117v-174h-185v174h-395zM1092 304h233v377z" />
    <glyph glyph-name="questiondown" unicode="&#xbf;" horiz-adv-x="1024" 
d="M62 -27q0 75 30.5 143.5t107.5 156.5l144 166q31 35 49.5 89t18.5 104q0 8 -2 22h249q1 -17 1 -27q0 -44 -9 -99.5t-29 -102t-46 -77.5l-144 -170q-69 -82 -69 -164q0 -75 59 -126.5t167 -51.5q68 0 160.5 24t161.5 62l23 -240q-205 -68 -397 -68q-173 0 -273 49
t-151 134.5t-51 175.5zM394 785v270h284v-270h-284z" />
    <glyph glyph-name="Agrave" unicode="&#xc0;" horiz-adv-x="1479" 
d="M19 0l559 1422h323l562 -1422h-318l-119 325h-587l-121 -325h-299zM457 1808h280l170 -296h-170zM526 555h413l-206 583z" />
    <glyph glyph-name="Aacute" unicode="&#xc1;" horiz-adv-x="1479" 
d="M19 0l559 1422h323l562 -1422h-318l-119 325h-587l-121 -325h-299zM526 555h413l-206 583zM571 1512l171 296h279l-289 -296h-161z" />
    <glyph glyph-name="Acircumflex" unicode="&#xc2;" horiz-adv-x="1479" 
d="M19 0l559 1422h323l562 -1422h-318l-119 325h-587l-121 -325h-299zM412 1512l228 296h206l215 -296h-182l-140 173l-142 -173h-185zM526 555h413l-206 583z" />
    <glyph glyph-name="Atilde" unicode="&#xc3;" horiz-adv-x="1479" 
d="M19 0l559 1422h323l562 -1422h-318l-119 325h-587l-121 -325h-299zM377 1542q10 74 46 133.5t87.5 88t103.5 28.5q26 0 49 -6q11 -2 95 -33q85 -32 102 -37q29 -7 51 -7q33 0 56.5 23t30.5 75h109q-12 -121 -75 -186t-154 -65q-45 0 -91 16l-126 45q-46 17 -79 17
q-36 0 -60.5 -19.5t-40.5 -72.5h-104zM526 555h413l-206 583z" />
    <glyph glyph-name="Adieresis" unicode="&#xc4;" horiz-adv-x="1479" 
d="M19 0l559 1422h323l562 -1422h-318l-119 325h-587l-121 -325h-299zM414 1557v237h232v-237h-232zM526 555h413l-206 583zM831 1557v237h232v-237h-232z" />
    <glyph glyph-name="Aring" unicode="&#xc5;" horiz-adv-x="1479" 
d="M19 0l559 1422h323l562 -1422h-318l-119 325h-587l-121 -325h-299zM526 555h413l-206 583zM531 1680q0 88 62 149.5t148 61.5t148 -62t62 -150q0 -86 -62.5 -148t-149.5 -62q-85 0 -146.5 61.5t-61.5 149.5zM626 1682q0 -48 33.5 -83t76.5 -35q48 0 82.5 34t34.5 80
q0 49 -34 83.5t-81 34.5q-46 0 -79 -33.5t-33 -80.5z" />
    <glyph glyph-name="AE" unicode="&#xc6;" horiz-adv-x="1934" 
d="M14 0l780 1417h1010v-239h-548l31 -334h476v-235h-457l35 -370h479v-239h-751l-26 325h-548l-175 -325h-306zM618 555h406l-52 666z" />
    <glyph glyph-name="Ccedilla" unicode="&#xc7;" horiz-adv-x="1252" 
d="M104 705q0 328 202.5 529t537.5 201q191 0 362 -60l-23 -244q-66 32 -157.5 50.5t-166.5 18.5q-127 0 -231 -60.5t-158.5 -173t-54.5 -248.5q0 -221 133 -356t348 -135q157 0 301 60l12 -254q-59 -19 -162.5 -34t-200.5 -13l-82 -123q45 11 86 11q81 0 124.5 -40
t43.5 -104q0 -77 -64.5 -131t-190.5 -54q-108 0 -207 43l40 87q28 -16 70.5 -27t71.5 -11q57 0 85.5 24.5t28.5 59.5q0 27 -24.5 47.5t-70.5 20.5q-45 0 -85 -19l-31 55l106 168q-305 37 -474 225t-169 487z" />
    <glyph glyph-name="Egrave" unicode="&#xc8;" 
d="M168 0v1415h841v-237h-552v-337h505v-232h-505v-372h557v-237h-846zM286 1808h280l170 -296h-170z" />
    <glyph glyph-name="Eacute" unicode="&#xc9;" 
d="M168 0v1415h841v-237h-552v-337h505v-232h-505v-372h557v-237h-846zM400 1512l171 296h279l-289 -296h-161z" />
    <glyph glyph-name="Ecircumflex" unicode="&#xca;" 
d="M168 0v1415h841v-237h-552v-337h505v-232h-505v-372h557v-237h-846zM241 1512l228 296h206l215 -296h-182l-140 173l-142 -173h-185z" />
    <glyph glyph-name="Edieresis" unicode="&#xcb;" 
d="M168 0v1415h841v-237h-552v-337h505v-232h-505v-372h557v-237h-846zM243 1557v237h232v-237h-232zM660 1557v237h232v-237h-232z" />
    <glyph glyph-name="Igrave" unicode="&#xcc;" horiz-adv-x="569" 
d="M3 1808h280l170 -296h-170zM140 0v1422h289v-1422h-289z" />
    <glyph glyph-name="Iacute" unicode="&#xcd;" horiz-adv-x="569" 
d="M116 1512l171 296h279l-289 -296h-161zM140 0v1422h289v-1422h-289z" />
    <glyph glyph-name="Icircumflex" unicode="&#xce;" horiz-adv-x="569" 
d="M-43 1512l228 296h206l215 -296h-182l-140 173l-142 -173h-185zM140 0v1422h289v-1422h-289z" />
    <glyph glyph-name="Idieresis" unicode="&#xcf;" horiz-adv-x="569" 
d="M-40 1557v237h232v-237h-232zM140 0v1422h289v-1422h-289zM377 1557v237h232v-237h-232z" />
    <glyph glyph-name="Eth" unicode="&#xd0;" horiz-adv-x="1479" 
d="M21 682v162h144l4 572h324q256 0 413 -39.5t262.5 -131t160 -232t54.5 -300.5q0 -153 -47.5 -285t-126.5 -221q-58 -65 -130.5 -106.5t-193.5 -71t-306 -29.5h-410v682h-148zM456 218q188 0 247 11q96 19 157.5 57t110.5 96t78.5 140.5t29.5 184.5q0 135 -51.5 239.5
t-133 160t-189.5 74.5q-73 12 -249 15v-352h310v-162h-310v-464z" />
    <glyph glyph-name="Ntilde" unicode="&#xd1;" horiz-adv-x="1479" 
d="M154 0v1422h346l562 -1090v1090h258v-1422h-348l-562 1090v-1090h-256zM376 1542q10 74 46 133.5t87.5 88t103.5 28.5q26 0 49 -6q11 -2 95 -33q85 -32 102 -37q29 -7 51 -7q33 0 56.5 23t30.5 75h109q-12 -121 -75 -186t-154 -65q-45 0 -91 16l-126 45q-46 17 -79 17
q-36 0 -60.5 -19.5t-40.5 -72.5h-104z" />
    <glyph glyph-name="Ograve" unicode="&#xd2;" horiz-adv-x="1593" 
d="M102 718q0 160 47 298t135.5 233t199.5 143q141 61 317 61q204 0 358 -83t242 -260.5t88 -394.5t-85.5 -391t-247.5 -263.5t-364 -89.5q-198 0 -360.5 89.5t-246 259.5t-83.5 398zM410 708q0 -164 52 -281t140.5 -175t194.5 -58q156 0 257 121q127 149 127 397
q0 169 -57.5 292.5t-143 176t-185.5 52.5q-159 0 -260 -121q-125 -149 -125 -404zM514 1808h280l170 -296h-170z" />
    <glyph glyph-name="Oacute" unicode="&#xd3;" horiz-adv-x="1593" 
d="M102 718q0 160 47 298t135.5 233t199.5 143q141 61 317 61q204 0 358 -83t242 -260.5t88 -394.5t-85.5 -391t-247.5 -263.5t-364 -89.5q-198 0 -360.5 89.5t-246 259.5t-83.5 398zM410 708q0 -164 52 -281t140.5 -175t194.5 -58q156 0 257 121q127 149 127 397
q0 169 -57.5 292.5t-143 176t-185.5 52.5q-159 0 -260 -121q-125 -149 -125 -404zM628 1512l171 296h279l-289 -296h-161z" />
    <glyph glyph-name="Ocircumflex" unicode="&#xd4;" horiz-adv-x="1593" 
d="M102 718q0 160 47 298t135.5 233t199.5 143q141 61 317 61q204 0 358 -83t242 -260.5t88 -394.5t-85.5 -391t-247.5 -263.5t-364 -89.5q-198 0 -360.5 89.5t-246 259.5t-83.5 398zM410 708q0 -164 52 -281t140.5 -175t194.5 -58q156 0 257 121q127 149 127 397
q0 169 -57.5 292.5t-143 176t-185.5 52.5q-159 0 -260 -121q-125 -149 -125 -404zM469 1512l228 296h206l215 -296h-182l-140 173l-142 -173h-185z" />
    <glyph glyph-name="Otilde" unicode="&#xd5;" horiz-adv-x="1593" 
d="M102 718q0 160 47 298t135.5 233t199.5 143q141 61 317 61q204 0 358 -83t242 -260.5t88 -394.5t-85.5 -391t-247.5 -263.5t-364 -89.5q-198 0 -360.5 89.5t-246 259.5t-83.5 398zM410 708q0 -164 52 -281t140.5 -175t194.5 -58q156 0 257 121q127 149 127 397
q0 169 -57.5 292.5t-143 176t-185.5 52.5q-159 0 -260 -121q-125 -149 -125 -404zM433 1543q10 74 46 133.5t87.5 88t103.5 28.5q26 0 49 -6q11 -2 95 -33q85 -32 102 -37q29 -7 51 -7q33 0 56.5 23t30.5 75h109q-12 -121 -75 -186t-154 -65q-45 0 -91 16l-126 45
q-46 17 -79 17q-36 0 -60.5 -19.5t-40.5 -72.5h-104z" />
    <glyph glyph-name="Odieresis" unicode="&#xd6;" horiz-adv-x="1593" 
d="M102 718q0 160 47 298t135.5 233t199.5 143q141 61 317 61q204 0 358 -83t242 -260.5t88 -394.5t-85.5 -391t-247.5 -263.5t-364 -89.5q-198 0 -360.5 89.5t-246 259.5t-83.5 398zM410 708q0 -164 52 -281t140.5 -175t194.5 -58q156 0 257 121q127 149 127 397
q0 169 -57.5 292.5t-143 176t-185.5 52.5q-159 0 -260 -121q-125 -149 -125 -404zM471 1557v237h232v-237h-232zM888 1557v237h232v-237h-232z" />
    <glyph glyph-name="multiply" unicode="&#xd7;" horiz-adv-x="1229" 
d="M102 166l365 364l-365 365l148 148l364 -365l365 365l148 -148l-365 -365l365 -364l-148 -148l-365 364l-364 -364z" />
    <glyph glyph-name="Oslash" unicode="&#xd8;" horiz-adv-x="1593" 
d="M102 715q0 185 60 338q44 111 124.5 198.5t181.5 134.5q140 67 326 67q117 0 224 -28t186 -82l109 141l93 -76l-111 -143q96 -105 145 -247.5t49 -301.5q0 -219 -86 -392.5t-248 -263t-360 -89.5q-233 0 -411 118l-121 -155l-92 75l121 156q-91 94 -140.5 236t-49.5 314z
M408 703q0 -87 17.5 -167.5t47.5 -136.5l567 732q-98 102 -246 102q-181 0 -283.5 -153.5t-102.5 -376.5zM545 297q46 -47 115 -75t141 -28q152 0 254 122q126 149 126 397q0 177 -69 315z" />
    <glyph glyph-name="Ugrave" unicode="&#xd9;" horiz-adv-x="1479" 
d="M159 609v813h289v-837q0 -111 16 -173t53 -107.5t86 -72.5t136 -27q143 0 221 87t78 293v837h278v-837q0 -158 -23.5 -253t-65.5 -152.5t-109.5 -104t-146.5 -68.5q-112 -31 -240 -31q-127 0 -227.5 28.5t-167 78.5t-103.5 110t-59 163q-15 70 -15 253zM457 1808h280
l170 -296h-170z" />
    <glyph glyph-name="Uacute" unicode="&#xda;" horiz-adv-x="1479" 
d="M159 609v813h289v-837q0 -111 16 -173t53 -107.5t86 -72.5t136 -27q143 0 221 87t78 293v837h278v-837q0 -158 -23.5 -253t-65.5 -152.5t-109.5 -104t-146.5 -68.5q-112 -31 -240 -31q-127 0 -227.5 28.5t-167 78.5t-103.5 110t-59 163q-15 70 -15 253zM571 1512l171 296
h279l-289 -296h-161z" />
    <glyph glyph-name="Ucircumflex" unicode="&#xdb;" horiz-adv-x="1479" 
d="M159 609v813h289v-837q0 -111 16 -173t53 -107.5t86 -72.5t136 -27q143 0 221 87t78 293v837h278v-837q0 -158 -23.5 -253t-65.5 -152.5t-109.5 -104t-146.5 -68.5q-112 -31 -240 -31q-127 0 -227.5 28.5t-167 78.5t-103.5 110t-59 163q-15 70 -15 253zM412 1512l228 296
h206l215 -296h-182l-140 173l-142 -173h-185z" />
    <glyph glyph-name="Udieresis" unicode="&#xdc;" horiz-adv-x="1479" 
d="M159 609v813h289v-837q0 -111 16 -173t53 -107.5t86 -72.5t136 -27q143 0 221 87t78 293v837h278v-837q0 -158 -23.5 -253t-65.5 -152.5t-109.5 -104t-146.5 -68.5q-112 -31 -240 -31q-127 0 -227.5 28.5t-167 78.5t-103.5 110t-59 163q-15 70 -15 253zM415 1557v237h232
v-237h-232zM832 1557v237h232v-237h-232z" />
    <glyph glyph-name="Yacute" unicode="&#xdd;" horiz-adv-x="1365" 
d="M17 1422h337l336 -592l344 592h303l-512 -853v-569h-289v569zM588 1512l171 296h279l-289 -296h-161z" />
    <glyph glyph-name="Thorn" unicode="&#xde;" 
d="M137 9v1430h289v-218h128q129 0 227.5 -30t160.5 -82t104 -134t42 -192q0 -117 -53.5 -214t-130 -146.5t-180.5 -69.5q-59 -12 -194 -12h-104v-332h-289zM426 559h67q118 0 175.5 25.5t91.5 80t34 119.5q0 114 -96 175q-64 41 -191 41h-81v-441z" />
    <glyph glyph-name="germandbls" unicode="&#xdf;" horiz-adv-x="1252" 
d="M145 0v991q0 187 59 308t181 187.5t272 66.5q130 0 235.5 -50t160.5 -141.5t55 -201.5q0 -131 -70 -220t-196 -120q160 -30 247 -132.5t87 -252.5q0 -120 -56 -229.5t-170.5 -165t-258.5 -55.5q-93 0 -160 22l7 216q17 -7 52 -13t65 -6q109 0 176.5 70t67.5 184
q0 112 -73 181.5t-211 69.5q-16 0 -34 -3v207q13 -3 29 -3q68 0 118.5 24t78.5 79.5t28 127.5q0 98 -54 155.5t-136 57.5q-87 0 -153 -77t-70 -229l-2 -114v-934h-275z" />
    <glyph glyph-name="agrave" unicode="&#xe0;" 
d="M71 315q0 179 163 270q125 69 377 69q63 0 143 -7q1 19 1 29q0 99 -58 153.5t-178 54.5q-87 0 -176 -34t-151 -84l-7 237q53 27 160 50t211 23q133 0 225.5 -37t150.5 -112q40 -53 54 -138.5t14 -250.5v-156l3 -154l4 -162l5 -66h-242l-7 156q-35 -74 -127.5 -124.5
t-206.5 -50.5q-99 0 -183 41t-129.5 117.5t-45.5 175.5zM272 1498h280l170 -296h-170zM344 306q0 -60 43 -99t119 -39q67 0 130.5 39.5t91.5 102.5t28 171q-51 4 -69 4q-100 0 -183.5 -18t-121.5 -61.5t-38 -99.5z" />
    <glyph glyph-name="aacute" unicode="&#xe1;" 
d="M71 315q0 179 163 270q125 69 377 69q63 0 143 -7q1 19 1 29q0 99 -58 153.5t-178 54.5q-87 0 -176 -34t-151 -84l-7 237q53 27 160 50t211 23q133 0 225.5 -37t150.5 -112q40 -53 54 -138.5t14 -250.5v-156l3 -154l4 -162l5 -66h-242l-7 156q-35 -74 -127.5 -124.5
t-206.5 -50.5q-99 0 -183 41t-129.5 117.5t-45.5 175.5zM344 306q0 -60 43 -99t119 -39q67 0 130.5 39.5t91.5 102.5t28 171q-51 4 -69 4q-100 0 -183.5 -18t-121.5 -61.5t-38 -99.5zM414 1202l171 296h279l-289 -296h-161z" />
    <glyph glyph-name="acircumflex" unicode="&#xe2;" 
d="M71 315q0 179 163 270q125 69 377 69q63 0 143 -7q1 19 1 29q0 99 -58 153.5t-178 54.5q-87 0 -176 -34t-151 -84l-7 237q53 27 160 50t211 23q133 0 225.5 -37t150.5 -112q40 -53 54 -138.5t14 -250.5v-156l3 -154l4 -162l5 -66h-242l-7 156q-35 -74 -127.5 -124.5
t-206.5 -50.5q-99 0 -183 41t-129.5 117.5t-45.5 175.5zM241 1202l228 296h206l215 -296h-182l-140 173l-142 -173h-185zM344 306q0 -60 43 -99t119 -39q67 0 130.5 39.5t91.5 102.5t28 171q-51 4 -69 4q-100 0 -183.5 -18t-121.5 -61.5t-38 -99.5z" />
    <glyph glyph-name="atilde" unicode="&#xe3;" 
d="M71 315q0 179 163 270q125 69 377 69q63 0 143 -7q1 19 1 29q0 99 -58 153.5t-178 54.5q-87 0 -176 -34t-151 -84l-7 237q53 27 160 50t211 23q133 0 225.5 -37t150.5 -112q40 -53 54 -138.5t14 -250.5v-156l3 -154l4 -162l5 -66h-242l-7 156q-35 -74 -127.5 -124.5
t-206.5 -50.5q-99 0 -183 41t-129.5 117.5t-45.5 175.5zM206 1233q10 74 46 133.5t87.5 88t103.5 28.5q26 0 49 -6q11 -2 95 -33q85 -32 102 -37q29 -7 51 -7q33 0 56.5 23t30.5 75h109q-12 -121 -75 -186t-154 -65q-45 0 -91 16l-126 45q-46 17 -79 17q-36 0 -60.5 -19.5
t-40.5 -72.5h-104zM344 306q0 -60 43 -99t119 -39q67 0 130.5 39.5t91.5 102.5t28 171q-51 4 -69 4q-100 0 -183.5 -18t-121.5 -61.5t-38 -99.5z" />
    <glyph glyph-name="adieresis" unicode="&#xe4;" 
d="M71 315q0 179 163 270q125 69 377 69q63 0 143 -7q1 19 1 29q0 99 -58 153.5t-178 54.5q-87 0 -176 -34t-151 -84l-7 237q53 27 160 50t211 23q133 0 225.5 -37t150.5 -112q40 -53 54 -138.5t14 -250.5v-156l3 -154l4 -162l5 -66h-242l-7 156q-35 -74 -127.5 -124.5
t-206.5 -50.5q-99 0 -183 41t-129.5 117.5t-45.5 175.5zM244 1247v237h232v-237h-232zM344 306q0 -60 43 -99t119 -39q67 0 130.5 39.5t91.5 102.5t28 171q-51 4 -69 4q-100 0 -183.5 -18t-121.5 -61.5t-38 -99.5zM661 1247v237h232v-237h-232z" />
    <glyph glyph-name="aring" unicode="&#xe5;" 
d="M71 315q0 179 163 270q125 69 377 69q63 0 143 -7q1 19 1 29q0 99 -58 153.5t-178 54.5q-87 0 -176 -34t-151 -84l-7 237q53 27 160 50t211 23q133 0 225.5 -37t150.5 -112q40 -53 54 -138.5t14 -250.5v-156l3 -154l4 -162l5 -66h-242l-7 156q-35 -74 -127.5 -124.5
t-206.5 -50.5q-99 0 -183 41t-129.5 117.5t-45.5 175.5zM344 306q0 -60 43 -99t119 -39q67 0 130.5 39.5t91.5 102.5t28 171q-51 4 -69 4q-100 0 -183.5 -18t-121.5 -61.5t-38 -99.5zM360 1370q0 88 62 149.5t148 61.5t148 -62t62 -150q0 -86 -62.5 -148t-149.5 -62
q-85 0 -146.5 61.5t-61.5 149.5zM455 1372q0 -48 33.5 -83t76.5 -35q48 0 82.5 34t34.5 80q0 49 -34 83.5t-81 34.5q-46 0 -79 -33.5t-33 -80.5z" />
    <glyph glyph-name="ae" unicode="&#xe6;" horiz-adv-x="1820" 
d="M78 317q0 70 27.5 129t70 95t88 56.5t114.5 34.5q106 23 242 23q80 0 164 -10q1 14 1 22q0 102 -59.5 158.5t-183.5 56.5q-98 0 -177 -24t-164 -78l-7 213q51 31 165 58.5t211 27.5t176 -24t124 -62q34 -28 61 -83q49 82 120 123q98 55 238 55q98 0 177 -29.5t134 -84
t87.5 -122.5t49 -165t15.5 -241h-707q8 -88 48 -145.5t110.5 -85.5t148.5 -28q74 0 164.5 30.5t142.5 69.5l3 -230q-65 -32 -160.5 -53t-193.5 -21q-130 0 -212 29.5t-140 83.5q-40 37 -65 91q-27 -53 -61 -88t-91 -63t-122.5 -42.5t-128.5 -14.5q-119 0 -218 45.5
t-145.5 123t-46.5 169.5zM358 312q0 -61 45.5 -103.5t122.5 -42.5q71 0 136 39t93 100.5t29 170.5l-113 5q-28 1 -44 1q-133 0 -201 -53t-68 -117zM1043 635h436q-1 76 -31 139t-78.5 91.5t-101.5 28.5q-82 0 -147 -66t-78 -193z" />
    <glyph glyph-name="ccedilla" unicode="&#xe7;" horiz-adv-x="910" 
d="M69 528q0 160 66 282t194.5 188t275.5 66q53 0 120.5 -9.5t113.5 -23.5l-23 -220q-68 36 -166 36q-127 0 -212 -88t-85 -226q0 -90 36.5 -164t105 -114t153.5 -40q48 0 103 14t95 34l12 -230q-112 -38 -253 -38l-88 -132q45 11 86 11q81 0 124.5 -40t43.5 -104
q0 -77 -64.5 -131t-190.5 -54q-108 0 -207 43l40 87q28 -16 70.5 -27t71.5 -11q57 0 85.5 24.5t28.5 59.5q0 27 -24.5 47.5t-70.5 20.5q-45 0 -85 -19l-31 55l112 178q-207 34 -322 171.5t-115 353.5z" />
    <glyph glyph-name="egrave" unicode="&#xe8;" 
d="M81 531q0 168 63.5 297t184.5 194.5t267 65.5q156 0 267 -77.5t155.5 -210.5t44.5 -301q0 -19 -3 -56h-714q3 -71 43.5 -133.5t104.5 -93.5t157 -31q84 0 166 23.5t174 75.5l3 -225q-36 -27 -143.5 -55t-220.5 -28q-168 0 -292.5 62.5t-190.5 192.5t-66 300zM273 1498
h280l170 -296h-170zM344 633h462q-6 131 -67 196t-162 65q-94 0 -147 -57q-75 -78 -86 -204z" />
    <glyph glyph-name="eacute" unicode="&#xe9;" 
d="M81 531q0 168 63.5 297t184.5 194.5t267 65.5q156 0 267 -77.5t155.5 -210.5t44.5 -301q0 -19 -3 -56h-714q3 -71 43.5 -133.5t104.5 -93.5t157 -31q84 0 166 23.5t174 75.5l3 -225q-36 -27 -143.5 -55t-220.5 -28q-168 0 -292.5 62.5t-190.5 192.5t-66 300zM344 633h462
q-6 131 -67 196t-162 65q-94 0 -147 -57q-75 -78 -86 -204zM424 1202l171 296h279l-289 -296h-161z" />
    <glyph glyph-name="ecircumflex" unicode="&#xea;" 
d="M81 531q0 168 63.5 297t184.5 194.5t267 65.5q156 0 267 -77.5t155.5 -210.5t44.5 -301q0 -19 -3 -56h-714q3 -71 43.5 -133.5t104.5 -93.5t157 -31q84 0 166 23.5t174 75.5l3 -225q-36 -27 -143.5 -55t-220.5 -28q-168 0 -292.5 62.5t-190.5 192.5t-66 300zM266 1202
l228 296h206l215 -296h-182l-140 173l-142 -173h-185zM344 633h462q-6 131 -67 196t-162 65q-94 0 -147 -57q-75 -78 -86 -204z" />
    <glyph glyph-name="edieresis" unicode="&#xeb;" 
d="M81 531q0 168 63.5 297t184.5 194.5t267 65.5q156 0 267 -77.5t155.5 -210.5t44.5 -301q0 -19 -3 -56h-714q3 -71 43.5 -133.5t104.5 -93.5t157 -31q84 0 166 23.5t174 75.5l3 -225q-36 -27 -143.5 -55t-220.5 -28q-168 0 -292.5 62.5t-190.5 192.5t-66 300zM268 1247
v237h232v-237h-232zM344 633h462q-6 131 -67 196t-162 65q-94 0 -147 -57q-75 -78 -86 -204zM685 1247v237h232v-237h-232z" />
    <glyph glyph-name="igrave" unicode="&#xec;" horiz-adv-x="569" 
d="M-11 1498h280l170 -296h-170zM147 0v1055h275v-1055h-275z" />
    <glyph glyph-name="iacute" unicode="&#xed;" horiz-adv-x="569" 
d="M130 1202l171 296h279l-289 -296h-161zM147 0v1055h275v-1055h-275z" />
    <glyph glyph-name="icircumflex" unicode="&#xee;" horiz-adv-x="569" 
d="M-43 1202l228 296h206l215 -296h-182l-140 173l-142 -173h-185zM147 0v1055h275v-1055h-275z" />
    <glyph glyph-name="idieresis" unicode="&#xef;" horiz-adv-x="569" 
d="M-40 1247v237h232v-237h-232zM147 0v1055h275v-1055h-275zM377 1247v237h232v-237h-232z" />
    <glyph glyph-name="eth" unicode="&#xf0;" horiz-adv-x="1252" 
d="M116 486q0 254 149 393q119 112 280 112q136 0 235 -88q-12 35 -28 61q-29 44 -101.5 118.5t-162.5 140.5l-180 -121l-95 74l173 116q-77 60 -199 111l199 152q44 -22 107 -62t97 -66l152 107l104 -69l-159 -109q165 -128 260 -245t138 -254t43 -285q0 -298 -154 -449
t-369 -151q-197 0 -332 119q-157 140 -157 395zM396 488q0 -157 71 -245q52 -63 151 -63q94 0 157.5 77t63.5 234q0 101 -27.5 168.5t-77.5 100t-107 32.5q-94 0 -162.5 -79.5t-68.5 -224.5z" />
    <glyph glyph-name="ntilde" unicode="&#xf1;" horiz-adv-x="1252" 
d="M135 1055h261l7 -161q113 178 341 178q86 0 154.5 -25t112.5 -68.5t66 -95.5t32 -147q4 -45 5 -238v-498h-273v529q0 172 -30 232q-46 90 -153 90q-67 0 -126 -38t-86 -108t-27 -205v-500h-275v847q0 109 -9 208zM263 1233q10 74 46 133.5t87.5 88t103.5 28.5q26 0 49 -6
q11 -2 95 -33q85 -32 102 -37q29 -7 51 -7q33 0 56.5 23t30.5 75h109q-12 -121 -75 -186t-154 -65q-45 0 -91 16l-126 45q-46 17 -79 17q-36 0 -60.5 -19.5t-40.5 -72.5h-104z" />
    <glyph glyph-name="ograve" unicode="&#xf2;" horiz-adv-x="1252" 
d="M76 525q0 249 154 405t397 156q242 0 394.5 -156t152.5 -416q0 -95 -32 -193.5t-97.5 -173.5t-171 -125.5t-247.5 -50.5q-242 0 -396 154.5t-154 399.5zM329 1498h280l170 -296h-170zM365 531q0 -173 75 -262t183 -89q126 0 196 97t70 247q0 136 -67 246t-194 110
q-57 0 -102 -22.5t-79 -65.5t-54 -97q-28 -78 -28 -164z" />
    <glyph glyph-name="oacute" unicode="&#xf3;" horiz-adv-x="1252" 
d="M76 525q0 249 154 405t397 156q242 0 394.5 -156t152.5 -416q0 -95 -32 -193.5t-97.5 -173.5t-171 -125.5t-247.5 -50.5q-242 0 -396 154.5t-154 399.5zM365 531q0 -173 75 -262t183 -89q126 0 196 97t70 247q0 136 -67 246t-194 110q-57 0 -102 -22.5t-79 -65.5t-54 -97
q-28 -78 -28 -164zM472 1202l171 296h279l-289 -296h-161z" />
    <glyph glyph-name="ocircumflex" unicode="&#xf4;" horiz-adv-x="1252" 
d="M76 525q0 249 154 405t397 156q242 0 394.5 -156t152.5 -416q0 -95 -32 -193.5t-97.5 -173.5t-171 -125.5t-247.5 -50.5q-242 0 -396 154.5t-154 399.5zM298 1202l228 296h206l215 -296h-182l-140 173l-142 -173h-185zM365 531q0 -173 75 -262t183 -89q126 0 196 97
t70 247q0 136 -67 246t-194 110q-57 0 -102 -22.5t-79 -65.5t-54 -97q-28 -78 -28 -164z" />
    <glyph glyph-name="otilde" unicode="&#xf5;" horiz-adv-x="1252" 
d="M76 525q0 249 154 405t397 156q242 0 394.5 -156t152.5 -416q0 -95 -32 -193.5t-97.5 -173.5t-171 -125.5t-247.5 -50.5q-242 0 -396 154.5t-154 399.5zM263 1233q10 74 46 133.5t87.5 88t103.5 28.5q26 0 49 -6q11 -2 95 -33q85 -32 102 -37q29 -7 51 -7q33 0 56.5 23
t30.5 75h109q-12 -121 -75 -186t-154 -65q-45 0 -91 16l-126 45q-46 17 -79 17q-36 0 -60.5 -19.5t-40.5 -72.5h-104zM365 531q0 -173 75 -262t183 -89q126 0 196 97t70 247q0 136 -67 246t-194 110q-57 0 -102 -22.5t-79 -65.5t-54 -97q-28 -78 -28 -164z" />
    <glyph glyph-name="odieresis" unicode="&#xf6;" horiz-adv-x="1252" 
d="M76 525q0 249 154 405t397 156q242 0 394.5 -156t152.5 -416q0 -95 -32 -193.5t-97.5 -173.5t-171 -125.5t-247.5 -50.5q-242 0 -396 154.5t-154 399.5zM301 1247v237h232v-237h-232zM365 531q0 -173 75 -262t183 -89q126 0 196 97t70 247q0 136 -67 246t-194 110
q-57 0 -102 -22.5t-79 -65.5t-54 -97q-28 -78 -28 -164zM718 1247v237h232v-237h-232z" />
    <glyph glyph-name="divide" unicode="&#xf7;" horiz-adv-x="1229" 
d="M84 426v209h1061v-209h-1061zM479 25v270h271v-270h-271zM479 770v270h271v-270h-271z" />
    <glyph glyph-name="oslash" unicode="&#xf8;" horiz-adv-x="1252" 
d="M76 525q0 247 155.5 404t396.5 157q177 0 314 -90l108 130l83 -66l-110 -132q75 -77 113 -182.5t38 -222.5q0 -121 -39 -222.5t-105.5 -169.5t-148.5 -106q-115 -54 -255 -54q-183 0 -322 93l-114 -137l-83 66l116 140q-147 156 -147 392zM365 525q0 -103 33 -182
l391 469q-65 68 -161 68q-108 0 -185.5 -92.5t-77.5 -262.5zM458 248q62 -68 165 -68q126 0 196 97t70 247q0 104 -40 195z" />
    <glyph glyph-name="ugrave" unicode="&#xf9;" horiz-adv-x="1252" 
d="M145 521v534h275v-519l2 -93q3 -109 36 -158q52 -76 149 -76q57 0 103 28.5t73.5 77.5t40.5 128q6 37 6 126v486h275v-645l7 -348l7 -62h-265l-7 161q-47 -79 -135.5 -127.5t-205.5 -48.5q-83 0 -149 23.5t-107.5 61.5t-63 83t-33.5 136q-8 61 -8 232zM329 1498h280
l170 -296h-170z" />
    <glyph glyph-name="uacute" unicode="&#xfa;" horiz-adv-x="1252" 
d="M145 521v534h275v-519l2 -93q3 -109 36 -158q52 -76 149 -76q57 0 103 28.5t73.5 77.5t40.5 128q6 37 6 126v486h275v-645l7 -348l7 -62h-265l-7 161q-47 -79 -135.5 -127.5t-205.5 -48.5q-83 0 -149 23.5t-107.5 61.5t-63 83t-33.5 136q-8 61 -8 232zM472 1202l171 296
h279l-289 -296h-161z" />
    <glyph glyph-name="ucircumflex" unicode="&#xfb;" horiz-adv-x="1252" 
d="M145 521v534h275v-519l2 -93q3 -109 36 -158q52 -76 149 -76q57 0 103 28.5t73.5 77.5t40.5 128q6 37 6 126v486h275v-645l7 -348l7 -62h-265l-7 161q-47 -79 -135.5 -127.5t-205.5 -48.5q-83 0 -149 23.5t-107.5 61.5t-63 83t-33.5 136q-8 61 -8 232zM299 1202l228 296
h206l215 -296h-182l-140 173l-142 -173h-185z" />
    <glyph glyph-name="udieresis" unicode="&#xfc;" horiz-adv-x="1252" 
d="M145 521v534h275v-519l2 -93q3 -109 36 -158q52 -76 149 -76q57 0 103 28.5t73.5 77.5t40.5 128q6 37 6 126v486h275v-645l7 -348l7 -62h-265l-7 161q-47 -79 -135.5 -127.5t-205.5 -48.5q-83 0 -149 23.5t-107.5 61.5t-63 83t-33.5 136q-8 61 -8 232zM301 1247v237h232
v-237h-232zM718 1247v237h232v-237h-232z" />
    <glyph glyph-name="yacute" unicode="&#xfd;" 
d="M24 1055h303l256 -775l256 775h280l-424 -1128l-50 -114q-34 -79 -80.5 -132.5t-122 -88.5t-160.5 -35q-33 0 -102 8q-48 6 -90 20l19 204q67 -20 133 -20t120 48t72 128zM474 1202l171 296h279l-289 -296h-161z" />
    <glyph glyph-name="thorn" unicode="&#xfe;" horiz-adv-x="1252" 
d="M142 -420v1944h270v-642q61 93 138 136.5t184 43.5q210 0 321 -148t111 -378q0 -166 -50 -292q-31 -76 -84 -137t-124.5 -94.5t-168.5 -33.5q-98 0 -176.5 37t-150.5 114v-550h-270zM412 518q0 -158 78 -252q59 -72 157 -72q96 0 166.5 83.5t70.5 240.5q0 164 -73 255
q-54 66 -150 66q-105 0 -177 -82.5t-72 -238.5z" />
    <glyph glyph-name="ydieresis" unicode="&#xff;" 
d="M24 1055h303l256 -775l256 775h280l-424 -1128l-50 -114q-34 -79 -80.5 -132.5t-122 -88.5t-160.5 -35q-33 0 -102 8q-48 6 -90 20l19 204q67 -20 133 -20t120 48t72 128zM244 1247v237h232v-237h-232zM661 1247v237h232v-237h-232z" />
    <glyph glyph-name="OE" unicode="&#x152;" horiz-adv-x="1934" 
d="M97 708q0 147 40 271.5t110 210.5t151 131.5t217 77.5q105 25 245 23l553 -7h403v-237h-536v-337h490v-232h-490v-374h545v-235h-417l-503 -5q-165 -1 -286.5 24t-221.5 85t-168.5 153.5t-100 209.5t-31.5 241zM393 707q0 -155 67 -269.5t186 -168.5t247 -54q54 0 100 8
v962q-71 10 -126 10q-93 0 -154 -18q-95 -27 -169 -93.5t-112.5 -165t-38.5 -211.5z" />
    <glyph glyph-name="oe" unicode="&#x153;" horiz-adv-x="1934" 
d="M81 527q0 159 69.5 289t196.5 200t282 70q138 0 232.5 -49t155.5 -132q66 90 161 135.5t213 45.5q123 0 227 -49t163.5 -138.5t84.5 -233.5q14 -83 14 -224h-711q0 -116 77.5 -188.5t222.5 -72.5q86 0 168.5 29.5t140.5 72.5l7 -225q-162 -83 -363 -83q-98 0 -164 17.5
t-117 50.5t-77 61q-17 17 -35 49q-61 -87 -137 -126q-101 -52 -250 -52q-168 0 -297.5 69t-196.5 199t-67 285zM368 530q0 -176 75.5 -265.5t189.5 -89.5q131 0 197 104t66 247q0 98 -33 185t-94.5 129t-131.5 42q-109 0 -189 -92t-80 -260zM1169 631h429q-2 125 -68 200
q-50 58 -142 58q-90 0 -154.5 -71.5t-64.5 -186.5z" />
    <glyph glyph-name="Ydieresis" unicode="&#x178;" horiz-adv-x="1365" 
d="M17 1422h337l336 -592l344 592h303l-512 -853v-569h-289v569zM358 1557v237h232v-237h-232zM775 1557v237h232v-237h-232z" />
    <glyph glyph-name="circumflex" unicode="&#x2c6;" horiz-adv-x="569" 
d="M-43 1202l228 296h206l215 -296h-182l-140 173l-142 -173h-185z" />
    <glyph glyph-name="tilde" unicode="&#x2dc;" horiz-adv-x="569" 
d="M-78 1233q10 74 46 133.5t87.5 88t103.5 28.5q26 0 49 -6q11 -2 95 -33q85 -32 102 -37q29 -7 51 -7q33 0 56.5 23t30.5 75h109q-12 -121 -75 -186t-154 -65q-45 0 -91 16l-126 45q-46 17 -79 17q-36 0 -60.5 -19.5t-40.5 -72.5h-104z" />
    <glyph glyph-name="uni2000" unicode="&#x2000;" horiz-adv-x="945" 
 />
    <glyph glyph-name="uni2001" unicode="&#x2001;" horiz-adv-x="1891" 
 />
    <glyph glyph-name="uni2002" unicode="&#x2002;" horiz-adv-x="945" 
 />
    <glyph glyph-name="uni2003" unicode="&#x2003;" horiz-adv-x="1891" 
 />
    <glyph glyph-name="uni2004" unicode="&#x2004;" horiz-adv-x="630" 
 />
    <glyph glyph-name="uni2005" unicode="&#x2005;" horiz-adv-x="472" 
 />
    <glyph glyph-name="uni2006" unicode="&#x2006;" horiz-adv-x="315" 
 />
    <glyph glyph-name="uni2007" unicode="&#x2007;" horiz-adv-x="315" 
 />
    <glyph glyph-name="uni2008" unicode="&#x2008;" horiz-adv-x="236" 
 />
    <glyph glyph-name="uni2009" unicode="&#x2009;" horiz-adv-x="378" 
 />
    <glyph glyph-name="uni200A" unicode="&#x200a;" horiz-adv-x="105" 
 />
    <glyph glyph-name="uni2010" unicode="&#x2010;" horiz-adv-x="683" 
d="M76 436v228h538v-228h-538z" />
    <glyph glyph-name="uni2011" unicode="&#x2011;" horiz-adv-x="683" 
d="M76 436v228h538v-228h-538z" />
    <glyph glyph-name="figuredash" unicode="&#x2012;" horiz-adv-x="683" 
d="M76 436v228h538v-228h-538z" />
    <glyph glyph-name="endash" unicode="&#x2013;" horiz-adv-x="1024" 
d="M-7 462v185h1038v-185h-1038z" />
    <glyph glyph-name="emdash" unicode="&#x2014;" horiz-adv-x="2048" 
d="M0 462v185h2048v-185h-2048z" />
    <glyph glyph-name="quoteleft" unicode="&#x2018;" horiz-adv-x="569" 
d="M83 910l180 512h242l-126 -512h-296z" />
    <glyph glyph-name="quoteright" unicode="&#x2019;" horiz-adv-x="569" 
d="M78 910l130 512h297l-185 -512h-242z" />
    <glyph glyph-name="quotesinglbase" unicode="&#x201a;" horiz-adv-x="569" 
d="M78 -228l130 512h297l-185 -512h-242z" />
    <glyph glyph-name="quotedblleft" unicode="&#x201c;" horiz-adv-x="986" 
d="M88 910l185 512h239l-130 -512h-294zM503 910l185 512h239l-130 -512h-294z" />
    <glyph glyph-name="quotedblright" unicode="&#x201d;" horiz-adv-x="986" 
d="M81 910l130 512h294l-185 -512h-239zM496 910l130 512h294l-185 -512h-239z" />
    <glyph glyph-name="quotedblbase" unicode="&#x201e;" horiz-adv-x="986" 
d="M83 -228l130 512h294l-185 -512h-239zM498 -228l130 512h294l-185 -512h-239z" />
    <glyph glyph-name="bullet" unicode="&#x2022;" horiz-adv-x="1024" 
d="M141 732q0 97 50 185.5t139 136.5t182 48t182 -48t138.5 -137t49.5 -185q0 -95 -49 -183.5t-137 -137.5t-184 -49q-97 0 -185 49.5t-137 137t-49 183.5z" />
    <glyph glyph-name="ellipsis" unicode="&#x2026;" horiz-adv-x="2048" 
d="M207 0v297h270v-297h-270zM889 0v297h270v-297h-270zM1571 0v297h270v-297h-270z" />
    <glyph glyph-name="uni202F" unicode="&#x202f;" horiz-adv-x="378" 
 />
    <glyph glyph-name="guilsinglleft" unicode="&#x2039;" horiz-adv-x="683" 
d="M100 529l242 419h258l-225 -419l225 -420h-258z" />
    <glyph glyph-name="guilsinglright" unicode="&#x203a;" horiz-adv-x="683" 
d="M83 109l225 420l-225 419h258l242 -419l-242 -420h-258z" />
    <glyph glyph-name="uni205F" unicode="&#x205f;" horiz-adv-x="472" 
 />
    <glyph glyph-name="trademark" unicode="&#x2122;" horiz-adv-x="2048" 
d="M240 1354v110h610v-110h-229v-613l-147 1v612h-234zM979 741v723h207l180 -503l181 503h207v-723h-123v597l-210 -597h-110l-209 597v-597h-123z" />
    <glyph glyph-name="uni25FC" unicode="&#x25fc;" horiz-adv-x="1055" 
d="M0 0v1055h1055v-1055h-1055z" />
    <glyph glyph-name="uniFB01" unicode="&#xfb01;" horiz-adv-x="1365" 
d="M38 844v206h204q3 202 37 297t113.5 147t217.5 52q93 0 168 -22l-22 -225q-48 24 -104 24q-80 0 -105 -52t-30 -221h239v-206h-239v-844h-275v844h-204zM929 1247v258h280v-258h-280zM934 0v1055h273v-1055h-273z" />
    <glyph glyph-name="uniFB02" unicode="&#xfb02;" horiz-adv-x="1365" 
d="M38 844v206h204q3 202 37 297t113.5 147t217.5 52q93 0 168 -22l-22 -225q-48 24 -104 24q-80 0 -105 -52t-30 -221h239v-206h-239v-844h-275v844h-204zM934 0v1529h273v-1529h-273z" />
    <hkern u1="&#x20;" u2="&#x201e;" k="78" />
    <hkern u1="&#x20;" u2="&#x201c;" k="78" />
    <hkern u1="&#x20;" u2="&#x2018;" k="55" />
    <hkern u1="&#x20;" u2="Y" k="39" />
    <hkern u1="&#x20;" u2="W" k="39" />
    <hkern u1="&#x20;" u2="V" k="39" />
    <hkern u1="&#x20;" u2="T" k="55" />
    <hkern u1="&#x20;" u2="A" k="55" />
    <hkern u1="&#x2c;" u2="&#x201d;" k="156" />
    <hkern u1="&#x2c;" u2="&#x2019;" k="-39" />
    <hkern u1="&#x2c;" u2="&#x20;" k="55" />
    <hkern u1="&#x2e;" u2="&#x201d;" k="156" />
    <hkern u1="&#x2e;" u2="&#x201c;" k="156" />
    <hkern u1="&#x2e;" u2="&#x2019;" k="156" />
    <hkern u1="&#x2e;" u2="&#x20;" k="55" />
    <hkern u1="&#x30;" u2="&#x31;" k="117" />
    <hkern u1="&#x30;" u2="&#x30;" k="-117" />
    <hkern u1="&#x31;" u2="&#x39;" k="117" />
    <hkern u1="&#x31;" u2="&#x38;" k="117" />
    <hkern u1="&#x31;" u2="&#x37;" k="156" />
    <hkern u1="&#x31;" u2="&#x36;" k="117" />
    <hkern u1="&#x31;" u2="&#x35;" k="117" />
    <hkern u1="&#x31;" u2="&#x34;" k="117" />
    <hkern u1="&#x31;" u2="&#x33;" k="78" />
    <hkern u1="&#x31;" u2="&#x32;" k="78" />
    <hkern u1="&#x31;" u2="&#x31;" k="195" />
    <hkern u1="&#x31;" u2="&#x30;" k="78" />
    <hkern u1="&#x31;" u2="&#x2d;" k="78" />
    <hkern u1="&#x37;" u2="&#x36;" k="117" />
    <hkern u1="&#x37;" u2="&#x34;" k="117" />
    <hkern u1="&#x37;" u2="&#x2e;" k="350" />
    <hkern u1="&#x37;" u2="&#x2d;" k="117" />
    <hkern u1="&#x37;" u2="&#x2c;" k="350" />
    <hkern u1="&#x3a;" u2="&#x20;" k="39" />
    <hkern u1="&#x3b;" u2="&#x20;" k="39" />
    <hkern u1="A" u2="&#x201d;" k="195" />
    <hkern u1="A" u2="&#x201c;" k="195" />
    <hkern u1="A" u2="&#x2019;" k="195" />
    <hkern u1="A" u2="y" k="117" />
    <hkern u1="A" u2="w" k="78" />
    <hkern u1="A" u2="v" k="117" />
    <hkern u1="A" u2="u" k="2" />
    <hkern u1="A" u2="q" k="39" />
    <hkern u1="A" u2="p" k="2" />
    <hkern u1="A" u2="g" k="39" />
    <hkern u1="A" u2="e" k="39" />
    <hkern u1="A" u2="d" k="39" />
    <hkern u1="A" u2="c" k="39" />
    <hkern u1="A" u2="Y" k="233" />
    <hkern u1="A" u2="W" k="117" />
    <hkern u1="A" u2="V" k="156" />
    <hkern u1="A" u2="U" k="78" />
    <hkern u1="A" u2="T" k="156" />
    <hkern u1="A" u2="Q" k="78" />
    <hkern u1="A" u2="O" k="78" />
    <hkern u1="A" u2="G" k="78" />
    <hkern u1="A" u2="C" k="78" />
    <hkern u1="A" u2="&#x2d;" k="-39" />
    <hkern u1="B" u2="o" k="-2" />
    <hkern u1="B" u2="e" k="-2" />
    <hkern u1="B" u2="Y" k="117" />
    <hkern u1="B" u2="W" k="78" />
    <hkern u1="B" u2="V" k="78" />
    <hkern u1="B" u2="U" k="2" />
    <hkern u1="B" u2="A" k="39" />
    <hkern u1="B" u2="&#x2e;" k="39" />
    <hkern u1="B" u2="&#x2c;" k="39" />
    <hkern u1="C" u2="A" k="-78" />
    <hkern u1="C" u2="&#x2e;" k="2" />
    <hkern u1="C" u2="&#x2c;" k="2" />
    <hkern u1="D" u2="&#x2019;" k="-78" />
    <hkern u1="D" u2="o" k="-2" />
    <hkern u1="D" u2="e" k="-2" />
    <hkern u1="D" u2="Y" k="156" />
    <hkern u1="D" u2="W" k="78" />
    <hkern u1="D" u2="V" k="117" />
    <hkern u1="D" u2="O" k="-2" />
    <hkern u1="D" u2="A" k="117" />
    <hkern u1="D" u2="&#x2e;" k="78" />
    <hkern u1="D" u2="&#x2c;" k="78" />
    <hkern u1="F" u2="u" k="39" />
    <hkern u1="F" u2="r" k="39" />
    <hkern u1="F" u2="o" k="-2" />
    <hkern u1="F" u2="i" k="2" />
    <hkern u1="F" u2="e" k="-2" />
    <hkern u1="F" u2="a" k="78" />
    <hkern u1="F" u2="T" k="-78" />
    <hkern u1="F" u2="J" k="39" />
    <hkern u1="F" u2="A" k="117" />
    <hkern u1="F" u2="&#x2e;" k="350" />
    <hkern u1="F" u2="&#x2d;" k="-2" />
    <hkern u1="F" u2="&#x2c;" k="350" />
    <hkern u1="G" u2="A" k="-2" />
    <hkern u1="G" u2="&#x2e;" k="2" />
    <hkern u1="G" u2="&#x2c;" k="2" />
    <hkern u1="H" u2="o" k="39" />
    <hkern u1="H" u2="e" k="39" />
    <hkern u1="H" u2="T" k="-2" />
    <hkern u1="H" u2="O" k="39" />
    <hkern u1="H" u2="A" k="-2" />
    <hkern u1="I" u2="e" k="39" />
    <hkern u1="I" u2="T" k="-39" />
    <hkern u1="I" u2="Q" k="39" />
    <hkern u1="I" u2="O" k="39" />
    <hkern u1="I" u2="G" k="39" />
    <hkern u1="J" u2="u" k="39" />
    <hkern u1="J" u2="o" k="39" />
    <hkern u1="J" u2="e" k="39" />
    <hkern u1="J" u2="a" k="39" />
    <hkern u1="J" u2="O" k="39" />
    <hkern u1="J" u2="A" k="78" />
    <hkern u1="J" u2="&#x2e;" k="78" />
    <hkern u1="J" u2="&#x2c;" k="78" />
    <hkern u1="K" u2="y" k="78" />
    <hkern u1="K" u2="w" k="117" />
    <hkern u1="K" u2="u" k="55" />
    <hkern u1="K" u2="o" k="55" />
    <hkern u1="K" u2="e" k="55" />
    <hkern u1="K" u2="a" k="39" />
    <hkern u1="K" u2="O" k="117" />
    <hkern u1="K" u2="A" k="-39" />
    <hkern u1="L" u2="&#x201d;" k="195" />
    <hkern u1="L" u2="&#x2019;" k="195" />
    <hkern u1="L" u2="y" k="78" />
    <hkern u1="L" u2="a" k="-78" />
    <hkern u1="L" u2="Y" k="233" />
    <hkern u1="L" u2="W" k="117" />
    <hkern u1="L" u2="V" k="195" />
    <hkern u1="L" u2="T" k="156" />
    <hkern u1="L" u2="D" k="-2" />
    <hkern u1="L" u2="A" k="-39" />
    <hkern u1="L" u2="&#x2d;" k="156" />
    <hkern u1="M" u2="o" k="39" />
    <hkern u1="M" u2="e" k="39" />
    <hkern u1="M" u2="O" k="39" />
    <hkern u1="N" u2="o" k="39" />
    <hkern u1="N" u2="e" k="39" />
    <hkern u1="N" u2="a" k="39" />
    <hkern u1="N" u2="T" k="-2" />
    <hkern u1="N" u2="O" k="39" />
    <hkern u1="N" u2="A" k="39" />
    <hkern u1="N" u2="&#x2e;" k="2" />
    <hkern u1="N" u2="&#x2c;" k="2" />
    <hkern u1="O" u2="e" k="39" />
    <hkern u1="O" u2="Y" k="156" />
    <hkern u1="O" u2="X" k="117" />
    <hkern u1="O" u2="W" k="78" />
    <hkern u1="O" u2="V" k="78" />
    <hkern u1="O" u2="U" k="-2" />
    <hkern u1="O" u2="T" k="78" />
    <hkern u1="O" u2="R" k="39" />
    <hkern u1="O" u2="P" k="39" />
    <hkern u1="O" u2="O" k="-2" />
    <hkern u1="O" u2="N" k="39" />
    <hkern u1="O" u2="M" k="39" />
    <hkern u1="O" u2="L" k="39" />
    <hkern u1="O" u2="K" k="39" />
    <hkern u1="O" u2="I" k="39" />
    <hkern u1="O" u2="H" k="39" />
    <hkern u1="O" u2="G" k="-2" />
    <hkern u1="O" u2="F" k="39" />
    <hkern u1="O" u2="C" k="-2" />
    <hkern u1="O" u2="B" k="39" />
    <hkern u1="O" u2="A" k="117" />
    <hkern u1="O" u2="&#x2e;" k="78" />
    <hkern u1="O" u2="&#x2c;" k="78" />
    <hkern u1="P" u2="u" k="-2" />
    <hkern u1="P" u2="r" k="-2" />
    <hkern u1="P" u2="o" k="39" />
    <hkern u1="P" u2="e" k="39" />
    <hkern u1="P" u2="a" k="78" />
    <hkern u1="P" u2="A" k="156" />
    <hkern u1="P" u2="&#x2e;" k="389" />
    <hkern u1="P" u2="&#x2d;" k="-39" />
    <hkern u1="P" u2="&#x2c;" k="389" />
    <hkern u1="Q" u2="U" k="-2" />
    <hkern u1="Q" u2="&#x2e;" k="39" />
    <hkern u1="Q" u2="&#x2c;" k="2" />
    <hkern u1="R" u2="&#x2019;" k="-78" />
    <hkern u1="R" u2="o" k="39" />
    <hkern u1="R" u2="e" k="39" />
    <hkern u1="R" u2="Y" k="78" />
    <hkern u1="R" u2="W" k="39" />
    <hkern u1="R" u2="V" k="78" />
    <hkern u1="R" u2="U" k="2" />
    <hkern u1="R" u2="T" k="-2" />
    <hkern u1="R" u2="O" k="2" />
    <hkern u1="R" u2="G" k="39" />
    <hkern u1="R" u2="C" k="39" />
    <hkern u1="R" u2="A" k="-39" />
    <hkern u1="S" u2="T" k="-2" />
    <hkern u1="S" u2="&#x2e;" k="39" />
    <hkern u1="S" u2="&#x2c;" k="39" />
    <hkern u1="T" u2="&#xfc;" k="78" />
    <hkern u1="T" u2="&#xf8;" k="195" />
    <hkern u1="T" u2="&#xf6;" k="117" />
    <hkern u1="T" u2="&#xe9;" k="156" />
    <hkern u1="T" u2="&#xe5;" k="156" />
    <hkern u1="T" u2="&#xe4;" k="78" />
    <hkern u1="T" u2="y" k="156" />
    <hkern u1="T" u2="w" k="156" />
    <hkern u1="T" u2="u" k="233" />
    <hkern u1="T" u2="r" k="195" />
    <hkern u1="T" u2="o" k="233" />
    <hkern u1="T" u2="i" k="-2" />
    <hkern u1="T" u2="h" k="2" />
    <hkern u1="T" u2="e" k="233" />
    <hkern u1="T" u2="a" k="233" />
    <hkern u1="T" u2="Y" k="-78" />
    <hkern u1="T" u2="W" k="-78" />
    <hkern u1="T" u2="V" k="-78" />
    <hkern u1="T" u2="T" k="-156" />
    <hkern u1="T" u2="O" k="78" />
    <hkern u1="T" u2="L" k="-39" />
    <hkern u1="T" u2="J" k="55" />
    <hkern u1="T" u2="I" k="-39" />
    <hkern u1="T" u2="H" k="-2" />
    <hkern u1="T" u2="A" k="156" />
    <hkern u1="T" u2="&#x3b;" k="311" />
    <hkern u1="T" u2="&#x3a;" k="311" />
    <hkern u1="T" u2="&#x2e;" k="272" />
    <hkern u1="T" u2="&#x2d;" k="195" />
    <hkern u1="T" u2="&#x2c;" k="311" />
    <hkern u1="U" u2="T" k="-2" />
    <hkern u1="U" u2="A" k="55" />
    <hkern u1="U" u2="&#x2e;" k="78" />
    <hkern u1="U" u2="&#x2c;" k="78" />
    <hkern u1="V" u2="&#xfc;" k="78" />
    <hkern u1="V" u2="&#xf6;" k="117" />
    <hkern u1="V" u2="&#xe4;" k="78" />
    <hkern u1="V" u2="u" k="78" />
    <hkern u1="V" u2="o" k="156" />
    <hkern u1="V" u2="i" k="-39" />
    <hkern u1="V" u2="e" k="156" />
    <hkern u1="V" u2="a" k="156" />
    <hkern u1="V" u2="Y" k="-78" />
    <hkern u1="V" u2="O" k="78" />
    <hkern u1="V" u2="G" k="78" />
    <hkern u1="V" u2="C" k="78" />
    <hkern u1="V" u2="A" k="195" />
    <hkern u1="V" u2="&#x3b;" k="117" />
    <hkern u1="V" u2="&#x3a;" k="117" />
    <hkern u1="V" u2="&#x2e;" k="272" />
    <hkern u1="V" u2="&#x2d;" k="55" />
    <hkern u1="V" u2="&#x2c;" k="272" />
    <hkern u1="W" u2="&#xfc;" k="78" />
    <hkern u1="W" u2="&#xf6;" k="78" />
    <hkern u1="W" u2="&#xe4;" k="78" />
    <hkern u1="W" u2="y" k="2" />
    <hkern u1="W" u2="u" k="78" />
    <hkern u1="W" u2="r" k="78" />
    <hkern u1="W" u2="o" k="117" />
    <hkern u1="W" u2="i" k="-2" />
    <hkern u1="W" u2="h" k="2" />
    <hkern u1="W" u2="e" k="117" />
    <hkern u1="W" u2="a" k="117" />
    <hkern u1="W" u2="Y" k="-39" />
    <hkern u1="W" u2="O" k="78" />
    <hkern u1="W" u2="H" k="-2" />
    <hkern u1="W" u2="A" k="156" />
    <hkern u1="W" u2="&#x3b;" k="78" />
    <hkern u1="W" u2="&#x3a;" k="78" />
    <hkern u1="W" u2="&#x2e;" k="195" />
    <hkern u1="W" u2="&#x2d;" k="-2" />
    <hkern u1="W" u2="&#x2c;" k="195" />
    <hkern u1="X" u2="O" k="117" />
    <hkern u1="Y" u2="u" k="233" />
    <hkern u1="Y" u2="o" k="311" />
    <hkern u1="Y" u2="i" k="39" />
    <hkern u1="Y" u2="e" k="311" />
    <hkern u1="Y" u2="a" k="272" />
    <hkern u1="Y" u2="S" k="55" />
    <hkern u1="Y" u2="O" k="195" />
    <hkern u1="Y" u2="A" k="272" />
    <hkern u1="Y" u2="&#x3b;" k="233" />
    <hkern u1="Y" u2="&#x3a;" k="233" />
    <hkern u1="Y" u2="&#x2e;" k="350" />
    <hkern u1="Y" u2="&#x2d;" k="233" />
    <hkern u1="Y" u2="&#x2c;" k="350" />
    <hkern u1="a" u2="y" k="78" />
    <hkern u1="a" u2="w" k="78" />
    <hkern u1="a" u2="v" k="78" />
    <hkern u1="a" u2="t" k="-2" />
    <hkern u1="a" u2="p" k="2" />
    <hkern u1="a" u2="g" k="-2" />
    <hkern u1="a" u2="b" k="2" />
    <hkern u1="b" u2="y" k="39" />
    <hkern u1="b" u2="v" k="2" />
    <hkern u1="b" u2="u" k="2" />
    <hkern u1="b" u2="o" k="-39" />
    <hkern u1="b" u2="l" k="2" />
    <hkern u1="b" u2="e" k="-2" />
    <hkern u1="b" u2="b" k="2" />
    <hkern u1="b" u2="&#x2e;" k="39" />
    <hkern u1="b" u2="&#x2c;" k="39" />
    <hkern u1="c" u2="y" k="-39" />
    <hkern u1="c" u2="t" k="-39" />
    <hkern u1="c" u2="o" k="-2" />
    <hkern u1="c" u2="l" k="2" />
    <hkern u1="c" u2="k" k="-2" />
    <hkern u1="c" u2="h" k="-2" />
    <hkern u1="c" u2="e" k="-2" />
    <hkern u1="c" u2="a" k="-39" />
    <hkern u1="c" u2="&#x2e;" k="2" />
    <hkern u1="c" u2="&#x2c;" k="2" />
    <hkern u1="d" u2="y" k="-2" />
    <hkern u1="d" u2="w" k="2" />
    <hkern u1="d" u2="v" k="-2" />
    <hkern u1="d" u2="o" k="-2" />
    <hkern u1="d" u2="e" k="-2" />
    <hkern u1="d" u2="d" k="2" />
    <hkern u1="e" u2="y" k="39" />
    <hkern u1="e" u2="x" k="39" />
    <hkern u1="e" u2="w" k="39" />
    <hkern u1="e" u2="v" k="39" />
    <hkern u1="e" u2="t" k="-2" />
    <hkern u1="e" u2="r" k="-2" />
    <hkern u1="e" u2="q" k="-39" />
    <hkern u1="e" u2="p" k="2" />
    <hkern u1="e" u2="o" k="-39" />
    <hkern u1="e" u2="n" k="-2" />
    <hkern u1="e" u2="m" k="-2" />
    <hkern u1="e" u2="l" k="-2" />
    <hkern u1="e" u2="k" k="-2" />
    <hkern u1="e" u2="i" k="-2" />
    <hkern u1="e" u2="h" k="-2" />
    <hkern u1="e" u2="g" k="-2" />
    <hkern u1="e" u2="e" k="-2" />
    <hkern u1="e" u2="d" k="-2" />
    <hkern u1="e" u2="c" k="-39" />
    <hkern u1="e" u2="b" k="-2" />
    <hkern u1="e" u2="&#x2e;" k="2" />
    <hkern u1="e" u2="&#x2c;" k="2" />
    <hkern u1="f" u2="&#x201d;" k="2" />
    <hkern u1="f" u2="&#x2019;" k="2" />
    <hkern u1="f" u2="u" k="-2" />
    <hkern u1="f" u2="t" k="-39" />
    <hkern u1="f" u2="r" k="-2" />
    <hkern u1="f" u2="o" k="39" />
    <hkern u1="f" u2="l" k="-39" />
    <hkern u1="f" u2="i" k="-39" />
    <hkern u1="f" u2="f" k="-78" />
    <hkern u1="f" u2="e" k="39" />
    <hkern u1="f" u2="a" k="39" />
    <hkern u1="f" u2="&#x2e;" k="117" />
    <hkern u1="f" u2="&#x2c;" k="117" />
    <hkern u1="g" u2="y" k="-2" />
    <hkern u1="g" u2="r" k="39" />
    <hkern u1="g" u2="o" k="-2" />
    <hkern u1="g" u2="l" k="-2" />
    <hkern u1="g" u2="i" k="-2" />
    <hkern u1="g" u2="g" k="-2" />
    <hkern u1="g" u2="e" k="-2" />
    <hkern u1="g" u2="a" k="39" />
    <hkern u1="g" u2="&#x2e;" k="-2" />
    <hkern u1="g" u2="&#x2c;" k="-2" />
    <hkern u1="h" u2="&#x2019;" k="39" />
    <hkern u1="h" u2="y" k="39" />
    <hkern u1="h" u2="u" k="-2" />
    <hkern u1="h" u2="o" k="-2" />
    <hkern u1="h" u2="e" k="-2" />
    <hkern u1="i" u2="v" k="-2" />
    <hkern u1="i" u2="t" k="-2" />
    <hkern u1="i" u2="o" k="-2" />
    <hkern u1="i" u2="j" k="-2" />
    <hkern u1="i" u2="g" k="-2" />
    <hkern u1="i" u2="e" k="-2" />
    <hkern u1="i" u2="c" k="-2" />
    <hkern u1="j" u2="o" k="-2" />
    <hkern u1="j" u2="i" k="-2" />
    <hkern u1="k" u2="y" k="-2" />
    <hkern u1="k" u2="o" k="39" />
    <hkern u1="k" u2="i" k="-2" />
    <hkern u1="k" u2="g" k="39" />
    <hkern u1="k" u2="e" k="39" />
    <hkern u1="k" u2="a" k="39" />
    <hkern u1="l" u2="y" k="-2" />
    <hkern u1="l" u2="w" k="-2" />
    <hkern u1="l" u2="v" k="-2" />
    <hkern u1="l" u2="o" k="-2" />
    <hkern u1="l" u2="e" k="-2" />
    <hkern u1="m" u2="y" k="39" />
    <hkern u1="m" u2="u" k="-2" />
    <hkern u1="m" u2="p" k="-2" />
    <hkern u1="m" u2="o" k="-2" />
    <hkern u1="m" u2="e" k="-2" />
    <hkern u1="n" u2="&#x2019;" k="39" />
    <hkern u1="n" u2="y" k="39" />
    <hkern u1="n" u2="w" k="39" />
    <hkern u1="n" u2="v" k="2" />
    <hkern u1="n" u2="u" k="2" />
    <hkern u1="n" u2="o" k="-2" />
    <hkern u1="n" u2="e" k="-2" />
    <hkern u1="n" u2="c" k="-2" />
    <hkern u1="o" u2="y" k="39" />
    <hkern u1="o" u2="x" k="39" />
    <hkern u1="o" u2="w" k="39" />
    <hkern u1="o" u2="v" k="39" />
    <hkern u1="o" u2="u" k="-2" />
    <hkern u1="o" u2="r" k="-2" />
    <hkern u1="o" u2="q" k="-39" />
    <hkern u1="o" u2="p" k="-2" />
    <hkern u1="o" u2="o" k="-39" />
    <hkern u1="o" u2="n" k="-2" />
    <hkern u1="o" u2="m" k="-2" />
    <hkern u1="o" u2="l" k="-2" />
    <hkern u1="o" u2="i" k="-2" />
    <hkern u1="o" u2="h" k="-2" />
    <hkern u1="o" u2="g" k="-2" />
    <hkern u1="o" u2="e" k="-2" />
    <hkern u1="o" u2="d" k="-2" />
    <hkern u1="o" u2="c" k="-2" />
    <hkern u1="o" u2="a" k="-2" />
    <hkern u1="o" u2="&#x2e;" k="55" />
    <hkern u1="o" u2="&#x2c;" k="55" />
    <hkern u1="p" u2="y" k="39" />
    <hkern u1="p" u2="u" k="-2" />
    <hkern u1="p" u2="o" k="-2" />
    <hkern u1="p" u2="l" k="-2" />
    <hkern u1="p" u2="e" k="-2" />
    <hkern u1="p" u2="a" k="-2" />
    <hkern u1="p" u2="&#x2e;" k="55" />
    <hkern u1="p" u2="&#x2c;" k="55" />
    <hkern u1="q" u2="u" k="-2" />
    <hkern u1="r" u2="&#x2019;" k="-195" />
    <hkern u1="r" u2="z" k="-2" />
    <hkern u1="r" u2="y" k="-39" />
    <hkern u1="r" u2="x" k="-2" />
    <hkern u1="r" u2="w" k="-39" />
    <hkern u1="r" u2="v" k="-39" />
    <hkern u1="r" u2="u" k="-2" />
    <hkern u1="r" u2="t" k="-39" />
    <hkern u1="r" u2="s" k="-39" />
    <hkern u1="r" u2="r" k="-2" />
    <hkern u1="r" u2="p" k="2" />
    <hkern u1="r" u2="o" k="-2" />
    <hkern u1="r" u2="n" k="-2" />
    <hkern u1="r" u2="m" k="-2" />
    <hkern u1="r" u2="l" k="-2" />
    <hkern u1="r" u2="k" k="2" />
    <hkern u1="r" u2="i" k="-2" />
    <hkern u1="r" u2="h" k="-2" />
    <hkern u1="r" u2="g" k="-2" />
    <hkern u1="r" u2="f" k="-39" />
    <hkern u1="r" u2="e" k="-2" />
    <hkern u1="r" u2="d" k="-2" />
    <hkern u1="r" u2="c" k="-2" />
    <hkern u1="r" u2="a" k="39" />
    <hkern u1="r" u2="&#x3b;" k="2" />
    <hkern u1="r" u2="&#x3a;" k="2" />
    <hkern u1="r" u2="&#x2e;" k="156" />
    <hkern u1="r" u2="&#x2d;" k="156" />
    <hkern u1="r" u2="&#x2c;" k="156" />
    <hkern u1="s" u2="&#x2019;" k="-78" />
    <hkern u1="s" u2="w" k="2" />
    <hkern u1="s" u2="&#x2e;" k="2" />
    <hkern u1="s" u2="&#x2c;" k="2" />
    <hkern u1="t" u2="&#x2019;" k="-156" />
    <hkern u1="t" u2="y" k="-39" />
    <hkern u1="t" u2="w" k="-39" />
    <hkern u1="t" u2="u" k="-39" />
    <hkern u1="t" u2="t" k="-39" />
    <hkern u1="t" u2="r" k="-2" />
    <hkern u1="t" u2="o" k="-2" />
    <hkern u1="t" u2="m" k="-2" />
    <hkern u1="t" u2="l" k="-2" />
    <hkern u1="t" u2="i" k="-39" />
    <hkern u1="t" u2="e" k="-2" />
    <hkern u1="t" u2="a" k="-39" />
    <hkern u1="u" u2="y" k="-2" />
    <hkern u1="u" u2="w" k="-2" />
    <hkern u1="u" u2="v" k="-2" />
    <hkern u1="u" u2="t" k="-2" />
    <hkern u1="u" u2="e" k="-2" />
    <hkern u1="u" u2="d" k="-2" />
    <hkern u1="u" u2="c" k="-2" />
    <hkern u1="v" u2="y" k="-39" />
    <hkern u1="v" u2="v" k="-39" />
    <hkern u1="v" u2="o" k="39" />
    <hkern u1="v" u2="i" k="-2" />
    <hkern u1="v" u2="e" k="39" />
    <hkern u1="v" u2="c" k="39" />
    <hkern u1="v" u2="a" k="39" />
    <hkern u1="v" u2="&#x2e;" k="156" />
    <hkern u1="v" u2="&#x2d;" k="-39" />
    <hkern u1="v" u2="&#x2c;" k="156" />
    <hkern u1="w" u2="y" k="-39" />
    <hkern u1="w" u2="r" k="-2" />
    <hkern u1="w" u2="o" k="39" />
    <hkern u1="w" u2="i" k="-2" />
    <hkern u1="w" u2="h" k="2" />
    <hkern u1="w" u2="e" k="39" />
    <hkern u1="w" u2="d" k="39" />
    <hkern u1="w" u2="c" k="39" />
    <hkern u1="w" u2="a" k="39" />
    <hkern u1="w" u2="&#x2e;" k="156" />
    <hkern u1="w" u2="&#x2d;" k="-39" />
    <hkern u1="w" u2="&#x2c;" k="156" />
    <hkern u1="x" u2="o" k="39" />
    <hkern u1="x" u2="e" k="39" />
    <hkern u1="x" u2="c" k="39" />
    <hkern u1="x" u2="a" k="-2" />
    <hkern u1="x" u2="&#x2d;" k="78" />
    <hkern u1="y" u2="s" k="-2" />
    <hkern u1="y" u2="o" k="39" />
    <hkern u1="y" u2="e" k="39" />
    <hkern u1="y" u2="d" k="39" />
    <hkern u1="y" u2="c" k="39" />
    <hkern u1="y" u2="a" k="78" />
    <hkern u1="y" u2="&#x2e;" k="195" />
    <hkern u1="y" u2="&#x2d;" k="-39" />
    <hkern u1="y" u2="&#x2c;" k="195" />
    <hkern u1="z" u2="o" k="39" />
    <hkern u1="z" u2="e" k="39" />
    <hkern u1="&#x2018;" u2="&#x2019;" k="39" />
    <hkern u1="&#x2018;" u2="&#x2018;" k="39" />
    <hkern u1="&#x2018;" u2="A" k="233" />
    <hkern u1="&#x2019;" u2="&#x201d;" k="-2" />
    <hkern u1="&#x2019;" u2="v" k="2" />
    <hkern u1="&#x2019;" u2="t" k="-39" />
    <hkern u1="&#x2019;" u2="s" k="78" />
    <hkern u1="&#x2019;" u2="r" k="39" />
    <hkern u1="&#x2019;" u2="m" k="39" />
    <hkern u1="&#x2019;" u2="l" k="2" />
    <hkern u1="&#x2019;" u2="d" k="156" />
    <hkern u1="&#x201c;" u2="&#x2018;" k="-2" />
    <hkern u1="&#x201c;" u2="A" k="233" />
    <hkern u1="&#x201c;" u2="&#x2e;" k="195" />
    <hkern u1="&#x201c;" u2="&#x2c;" k="195" />
    <hkern u1="&#x201c;" u2="&#x20;" k="78" />
    <hkern u1="&#x201d;" u2="&#x20;" k="78" />
  </font>
</defs></svg>
